(kicad_sch (version 20230121) (generator eeschema)

  (uuid 3685168f-c63d-4923-a7a6-779fff43576a)

  (paper "A4")

  (lib_symbols
    (symbol "Device:C_Small" (pin_numbers hide) (pin_names (offset 0.254) hide) (in_bom yes) (on_board yes)
      (property "Reference" "C" (at 0.254 1.778 0)
        (effects (font (size 1.27 1.27)) (justify left))
      )
      (property "Value" "C_Small" (at 0.254 -2.032 0)
        (effects (font (size 1.27 1.27)) (justify left))
      )
      (property "Footprint" "" (at 0 0 0)
        (effects (font (size 1.27 1.27)) hide)
      )
      (property "Datasheet" "~" (at 0 0 0)
        (effects (font (size 1.27 1.27)) hide)
      )
      (property "ki_keywords" "capacitor cap" (at 0 0 0)
        (effects (font (size 1.27 1.27)) hide)
      )
      (property "ki_description" "Unpolarized capacitor, small symbol" (at 0 0 0)
        (effects (font (size 1.27 1.27)) hide)
      )
      (property "ki_fp_filters" "C_*" (at 0 0 0)
        (effects (font (size 1.27 1.27)) hide)
      )
      (symbol "C_Small_0_1"
        (polyline
          (pts
            (xy -1.524 -0.508)
            (xy 1.524 -0.508)
          )
          (stroke (width 0.3302) (type default))
          (fill (type none))
        )
        (polyline
          (pts
            (xy -1.524 0.508)
            (xy 1.524 0.508)
          )
          (stroke (width 0.3048) (type default))
          (fill (type none))
        )
      )
      (symbol "C_Small_1_1"
        (pin passive line (at 0 2.54 270) (length 2.032)
          (name "~" (effects (font (size 1.27 1.27))))
          (number "1" (effects (font (size 1.27 1.27))))
        )
        (pin passive line (at 0 -2.54 90) (length 2.032)
          (name "~" (effects (font (size 1.27 1.27))))
          (number "2" (effects (font (size 1.27 1.27))))
        )
      )
    )
    (symbol "Device:R_Small" (pin_numbers hide) (pin_names (offset 0.254) hide) (in_bom yes) (on_board yes)
      (property "Reference" "R" (at 0.762 0.508 0)
        (effects (font (size 1.27 1.27)) (justify left))
      )
      (property "Value" "R_Small" (at 0.762 -1.016 0)
        (effects (font (size 1.27 1.27)) (justify left))
      )
      (property "Footprint" "" (at 0 0 0)
        (effects (font (size 1.27 1.27)) hide)
      )
      (property "Datasheet" "~" (at 0 0 0)
        (effects (font (size 1.27 1.27)) hide)
      )
      (property "ki_keywords" "R resistor" (at 0 0 0)
        (effects (font (size 1.27 1.27)) hide)
      )
      (property "ki_description" "Resistor, small symbol" (at 0 0 0)
        (effects (font (size 1.27 1.27)) hide)
      )
      (property "ki_fp_filters" "R_*" (at 0 0 0)
        (effects (font (size 1.27 1.27)) hide)
      )
      (symbol "R_Small_0_1"
        (rectangle (start -0.762 1.778) (end 0.762 -1.778)
          (stroke (width 0.2032) (type default))
          (fill (type none))
        )
      )
      (symbol "R_Small_1_1"
        (pin passive line (at 0 2.54 270) (length 0.762)
          (name "~" (effects (font (size 1.27 1.27))))
          (number "1" (effects (font (size 1.27 1.27))))
        )
        (pin passive line (at 0 -2.54 90) (length 0.762)
          (name "~" (effects (font (size 1.27 1.27))))
          (number "2" (effects (font (size 1.27 1.27))))
        )
      )
    )
    (symbol "Motor:Fan_Tacho_PWM" (pin_names (offset 0)) (in_bom yes) (on_board yes)
      (property "Reference" "M" (at 2.54 5.08 0)
        (effects (font (size 1.27 1.27)) (justify left))
      )
      (property "Value" "Fan_Tacho_PWM" (at 2.54 -2.54 0)
        (effects (font (size 1.27 1.27)) (justify left top))
      )
      (property "Footprint" "" (at 0 0.254 0)
        (effects (font (size 1.27 1.27)) hide)
      )
      (property "Datasheet" "http://www.formfactors.org/developer%5Cspecs%5Crev1_2_public.pdf" (at 0 0.254 0)
        (effects (font (size 1.27 1.27)) hide)
      )
      (property "ki_keywords" "Fan Motor tacho PWM" (at 0 0 0)
        (effects (font (size 1.27 1.27)) hide)
      )
      (property "ki_description" "Fan, tacho output, PWM input, 4-pin connector" (at 0 0 0)
        (effects (font (size 1.27 1.27)) hide)
      )
      (property "ki_fp_filters" "FanPinHeader*P2.54mm*Vertical* PinHeader*P2.54mm*Vertical* TerminalBlock*" (at 0 0 0)
        (effects (font (size 1.27 1.27)) hide)
      )
      (symbol "Fan_Tacho_PWM_0_0"
        (arc (start -5.588 1.524) (mid -5.08 1.0182) (end -4.572 1.524)
          (stroke (width 0) (type default))
          (fill (type none))
        )
        (arc (start -5.08 2.032) (mid -5.4392 1.8832) (end -5.588 1.524)
          (stroke (width 0) (type default))
          (fill (type none))
        )
        (polyline
          (pts
            (xy -5.08 2.032)
            (xy -5.334 2.159)
          )
          (stroke (width 0) (type default))
          (fill (type none))
        )
        (polyline
          (pts
            (xy -5.08 2.032)
            (xy -5.207 1.778)
          )
          (stroke (width 0) (type default))
          (fill (type none))
        )
        (polyline
          (pts
            (xy -4.064 2.54)
            (xy -4.064 1.016)
            (xy -3.302 1.016)
          )
          (stroke (width 0) (type default))
          (fill (type none))
        )
      )
      (symbol "Fan_Tacho_PWM_0_1"
        (arc (start -2.54 -0.508) (mid 0.0028 0.9121) (end 0 3.81)
          (stroke (width 0) (type default))
          (fill (type none))
        )
        (polyline
          (pts
            (xy -4.064 2.54)
            (xy -5.08 2.54)
          )
          (stroke (width 0) (type default))
          (fill (type none))
        )
        (polyline
          (pts
            (xy 0 -5.08)
            (xy 0 -4.572)
          )
          (stroke (width 0) (type default))
          (fill (type none))
        )
        (polyline
          (pts
            (xy 0 -2.2352)
            (xy 0 -2.6416)
          )
          (stroke (width 0) (type default))
          (fill (type none))
        )
        (polyline
          (pts
            (xy 0 4.2672)
            (xy 0 4.6228)
          )
          (stroke (width 0) (type default))
          (fill (type none))
        )
        (polyline
          (pts
            (xy 0 4.572)
            (xy 0 5.08)
          )
          (stroke (width 0) (type default))
          (fill (type none))
        )
        (polyline
          (pts
            (xy -2.54 -1.016)
            (xy -4.064 -1.016)
            (xy -4.064 -2.54)
            (xy -5.08 -2.54)
          )
          (stroke (width 0) (type default))
          (fill (type none))
        )
        (polyline
          (pts
            (xy -5.334 -3.302)
            (xy -5.08 -3.302)
            (xy -5.08 -3.048)
            (xy -4.826 -3.048)
            (xy -4.826 -3.302)
            (xy -4.318 -3.302)
            (xy -4.318 -3.048)
            (xy -4.064 -3.048)
            (xy -4.064 -3.302)
            (xy -3.556 -3.302)
          )
          (stroke (width 0) (type default))
          (fill (type none))
        )
        (circle (center 0 1.016) (radius 3.2512)
          (stroke (width 0.254) (type default))
          (fill (type none))
        )
        (arc (start 0 3.81) (mid 0.053 0.921) (end 2.54 -0.508)
          (stroke (width 0) (type default))
          (fill (type none))
        )
        (arc (start 2.54 -0.508) (mid 0 1.0618) (end -2.54 -0.508)
          (stroke (width 0) (type default))
          (fill (type none))
        )
      )
      (symbol "Fan_Tacho_PWM_1_1"
        (pin passive line (at 0 -5.08 90) (length 2.54)
          (name "-" (effects (font (size 1.27 1.27))))
          (number "1" (effects (font (size 1.27 1.27))))
        )
        (pin passive line (at 0 7.62 270) (length 2.54)
          (name "+" (effects (font (size 1.27 1.27))))
          (number "2" (effects (font (size 1.27 1.27))))
        )
        (pin passive line (at -7.62 2.54 0) (length 2.54)
          (name "Tacho" (effects (font (size 1.27 1.27))))
          (number "3" (effects (font (size 1.27 1.27))))
        )
        (pin input line (at -7.62 -2.54 0) (length 2.54)
          (name "PWM" (effects (font (size 1.27 1.27))))
          (number "4" (effects (font (size 1.27 1.27))))
        )
      )
    )
    (symbol "New_Library:LMV321ILT" (pin_names (offset 0.254)) (in_bom yes) (on_board yes)
      (property "Reference" "CR" (at 45.72 10.16 0)
        (effects (font (size 1.524 1.524)))
      )
      (property "Value" "LMV321ILT" (at 45.72 7.62 0)
        (effects (font (size 1.524 1.524)))
      )
      (property "Footprint" "SOT23-5_STM" (at 0 0 0)
        (effects (font (size 1.27 1.27) italic) hide)
      )
      (property "Datasheet" "LMV321ILT" (at 0 0 0)
        (effects (font (size 1.27 1.27) italic) hide)
      )
      (property "ki_locked" "" (at 0 0 0)
        (effects (font (size 1.27 1.27)))
      )
      (property "ki_keywords" "LMV321ILT" (at 0 0 0)
        (effects (font (size 1.27 1.27)) hide)
      )
      (property "ki_fp_filters" "SOT23-5_STM SOT23-5_STM-M SOT23-5_STM-L" (at 0 0 0)
        (effects (font (size 1.27 1.27)) hide)
      )
      (symbol "LMV321ILT_0_1"
        (polyline
          (pts
            (xy 7.62 -10.16)
            (xy 83.82 -10.16)
          )
          (stroke (width 0.127) (type default))
          (fill (type none))
        )
        (polyline
          (pts
            (xy 7.62 5.08)
            (xy 7.62 -10.16)
          )
          (stroke (width 0.127) (type default))
          (fill (type none))
        )
        (polyline
          (pts
            (xy 83.82 -10.16)
            (xy 83.82 5.08)
          )
          (stroke (width 0.127) (type default))
          (fill (type none))
        )
        (polyline
          (pts
            (xy 83.82 5.08)
            (xy 7.62 5.08)
          )
          (stroke (width 0.127) (type default))
          (fill (type none))
        )
        (pin input line (at 0 0 0) (length 7.62)
          (name "NONINVERTINGINPUT" (effects (font (size 1.27 1.27))))
          (number "1" (effects (font (size 1.27 1.27))))
        )
        (pin power_in line (at 0 -2.54 0) (length 7.62)
          (name "VDD" (effects (font (size 1.27 1.27))))
          (number "2" (effects (font (size 1.27 1.27))))
        )
        (pin input line (at 91.44 -5.08 180) (length 7.62)
          (name "INVERTINGINPUT" (effects (font (size 1.27 1.27))))
          (number "3" (effects (font (size 1.27 1.27))))
        )
        (pin output line (at 91.44 -2.54 180) (length 7.62)
          (name "OUTPUT" (effects (font (size 1.27 1.27))))
          (number "4" (effects (font (size 1.27 1.27))))
        )
        (pin power_in line (at 91.44 0 180) (length 7.62)
          (name "VCC" (effects (font (size 1.27 1.27))))
          (number "5" (effects (font (size 1.27 1.27))))
        )
      )
    )
    (symbol "power:GNDREF" (power) (pin_names (offset 0)) (in_bom yes) (on_board yes)
      (property "Reference" "#PWR" (at 0 -6.35 0)
        (effects (font (size 1.27 1.27)) hide)
      )
      (property "Value" "GNDREF" (at 0 -3.81 0)
        (effects (font (size 1.27 1.27)))
      )
      (property "Footprint" "" (at 0 0 0)
        (effects (font (size 1.27 1.27)) hide)
      )
      (property "Datasheet" "" (at 0 0 0)
        (effects (font (size 1.27 1.27)) hide)
      )
      (property "ki_keywords" "global power" (at 0 0 0)
        (effects (font (size 1.27 1.27)) hide)
      )
      (property "ki_description" "Power symbol creates a global label with name \"GNDREF\" , reference supply ground" (at 0 0 0)
        (effects (font (size 1.27 1.27)) hide)
      )
      (symbol "GNDREF_0_1"
        (polyline
          (pts
            (xy -0.635 -1.905)
            (xy 0.635 -1.905)
          )
          (stroke (width 0) (type default))
          (fill (type none))
        )
        (polyline
          (pts
            (xy -0.127 -2.54)
            (xy 0.127 -2.54)
          )
          (stroke (width 0) (type default))
          (fill (type none))
        )
        (polyline
          (pts
            (xy 0 -1.27)
            (xy 0 0)
          )
          (stroke (width 0) (type default))
          (fill (type none))
        )
        (polyline
          (pts
            (xy 1.27 -1.27)
            (xy -1.27 -1.27)
          )
          (stroke (width 0) (type default))
          (fill (type none))
        )
      )
      (symbol "GNDREF_1_1"
        (pin power_in line (at 0 0 270) (length 0) hide
          (name "GNDREF" (effects (font (size 1.27 1.27))))
          (number "1" (effects (font (size 1.27 1.27))))
        )
      )
    )
  )

  (junction (at 96.52 120.65) (diameter 0) (color 0 0 0 0)
    (uuid 2330c0af-f55c-439f-88a4-8ed1ac427895)
  )
  (junction (at 208.28 123.19) (diameter 0) (color 0 0 0 0)
    (uuid 23894501-d33d-4740-8fc7-e060e93f8537)
  )
  (junction (at 101.6 137.16) (diameter 0) (color 0 0 0 0)
    (uuid 3c1c9b8d-edcd-4eea-85d0-2fe86c546509)
  )
  (junction (at 186.69 137.16) (diameter 0) (color 0 0 0 0)
    (uuid 5b004a53-2716-463f-89af-2f06d76a3c83)
  )
  (junction (at 96.52 137.16) (diameter 0) (color 0 0 0 0)
    (uuid 81a38ec4-bff0-47f3-a0e6-b808303e7af8)
  )
  (junction (at 212.09 124.46) (diameter 0) (color 0 0 0 0)
    (uuid bf0d7112-a0d8-46df-baa1-b695fbdf1132)
  )
  (junction (at 101.6 120.65) (diameter 0) (color 0 0 0 0)
    (uuid d473c39f-4851-4fa2-92d7-0d222b2cfa99)
  )

  (wire (pts (xy 96.52 137.16) (xy 96.52 138.43))
    (stroke (width 0) (type default))
    (uuid 01fb3887-29a0-47e8-b9f9-0cc5223e5ca6)
  )
  (wire (pts (xy 101.6 120.65) (xy 113.03 120.65))
    (stroke (width 0) (type default))
    (uuid 04b9330e-025c-424f-9484-e49cd04101f2)
  )
  (wire (pts (xy 186.69 137.16) (xy 186.69 144.78))
    (stroke (width 0) (type default))
    (uuid 0e35a6dd-82d5-4ad5-8a46-5c1219ae684f)
  )
  (wire (pts (xy 208.28 123.19) (xy 212.09 123.19))
    (stroke (width 0) (type default))
    (uuid 1d3792d6-d4a1-4f80-b9d5-1c4ca6a65baa)
  )
  (wire (pts (xy 148.59 137.16) (xy 186.69 137.16))
    (stroke (width 0) (type default))
    (uuid 2d2351a0-ee88-41f2-a08e-f8907d8658ba)
  )
  (wire (pts (xy 96.52 120.65) (xy 101.6 120.65))
    (stroke (width 0) (type default))
    (uuid 3196b37c-4697-41b0-8cc6-d8d0b8c4a1ad)
  )
  (wire (pts (xy 186.69 137.16) (xy 204.47 137.16))
    (stroke (width 0) (type default))
    (uuid 37b6ee5a-e482-4e78-a519-23b22ef9951e)
  )
  (wire (pts (xy 111.76 123.19) (xy 111.76 124.46))
    (stroke (width 0) (type default))
    (uuid 3b9b22b5-a3b0-4d1c-94f7-4c9c22da1977)
  )
  (wire (pts (xy 101.6 130.81) (xy 101.6 120.65))
    (stroke (width 0) (type default))
    (uuid 4261bd1b-a96f-497a-af41-0170809b67d7)
  )
  (wire (pts (xy 195.58 144.78) (xy 200.66 144.78))
    (stroke (width 0) (type default))
    (uuid 4c63a921-34d5-4b2b-bb9d-c7272d1a4fce)
  )
  (wire (pts (xy 88.9 96.52) (xy 88.9 93.98))
    (stroke (width 0) (type default))
    (uuid 4d8fec6f-93e4-47c0-9c77-1a4365e1dad2)
  )
  (wire (pts (xy 96.52 137.16) (xy 101.6 137.16))
    (stroke (width 0) (type default))
    (uuid 5702236e-e54c-4eb6-b194-e482e8164e87)
  )
  (wire (pts (xy 207.01 120.65) (xy 204.47 120.65))
    (stroke (width 0) (type default))
    (uuid 57b74600-07b2-4552-8cf5-db7e8d3900d9)
  )
  (wire (pts (xy 204.47 137.16) (xy 204.47 125.73))
    (stroke (width 0) (type default))
    (uuid 6ee1bb15-0b6a-4ad3-acd3-107171e7db32)
  )
  (wire (pts (xy 143.51 137.16) (xy 101.6 137.16))
    (stroke (width 0) (type default))
    (uuid 74e4dc40-3c5a-4686-9468-74157f234a9a)
  )
  (wire (pts (xy 186.69 144.78) (xy 190.5 144.78))
    (stroke (width 0) (type default))
    (uuid 76cb8305-656b-4e40-8d75-af11c3c54304)
  )
  (wire (pts (xy 208.28 144.78) (xy 208.28 123.19))
    (stroke (width 0) (type default))
    (uuid 793cc38c-f6f4-4f71-929a-7af46b984761)
  )
  (wire (pts (xy 96.52 121.92) (xy 96.52 120.65))
    (stroke (width 0) (type default))
    (uuid 79ff547f-c450-4d8e-959d-dfa9934e7151)
  )
  (wire (pts (xy 83.82 96.52) (xy 88.9 96.52))
    (stroke (width 0) (type default))
    (uuid 815717e6-6bca-49f2-bf3b-91d7e10e0110)
  )
  (wire (pts (xy 96.52 81.28) (xy 96.52 83.82))
    (stroke (width 0) (type default))
    (uuid 875d6f6d-e810-4d0b-9166-9bc400e33f1e)
  )
  (wire (pts (xy 96.52 96.52) (xy 96.52 120.65))
    (stroke (width 0) (type default))
    (uuid 9d4c0c9d-b390-4cdc-90a4-68e13d506414)
  )
  (wire (pts (xy 212.09 129.54) (xy 212.09 134.62))
    (stroke (width 0) (type default))
    (uuid adc441d1-9d98-4c79-a986-526f22f6718c)
  )
  (wire (pts (xy 212.09 123.19) (xy 212.09 124.46))
    (stroke (width 0) (type default))
    (uuid b3596245-0461-4210-9e75-e07bd28c5539)
  )
  (wire (pts (xy 212.09 124.46) (xy 222.25 124.46))
    (stroke (width 0) (type default))
    (uuid be9de06e-f3b5-4f88-aeae-3d9a60e9ae6d)
  )
  (wire (pts (xy 204.47 123.19) (xy 208.28 123.19))
    (stroke (width 0) (type default))
    (uuid dffb2a82-0aed-4beb-8e69-3f946bee73f9)
  )
  (wire (pts (xy 113.03 123.19) (xy 111.76 123.19))
    (stroke (width 0) (type default))
    (uuid e76bc2c3-4174-481d-84e6-3a9dbf3614d7)
  )
  (wire (pts (xy 82.55 88.9) (xy 88.9 88.9))
    (stroke (width 0) (type default))
    (uuid f0d4a39c-bc3c-404b-b914-b5da492aca3b)
  )
  (wire (pts (xy 205.74 144.78) (xy 208.28 144.78))
    (stroke (width 0) (type default))
    (uuid f3de3f88-e667-4192-8b8d-da365e20395b)
  )
  (wire (pts (xy 96.52 127) (xy 96.52 137.16))
    (stroke (width 0) (type default))
    (uuid f91351fc-6072-4b85-b60f-d66f08036072)
  )
  (wire (pts (xy 101.6 135.89) (xy 101.6 137.16))
    (stroke (width 0) (type default))
    (uuid ff4084a8-1424-4689-9da8-350900d5c68b)
  )

  (global_label "SENSOR_3V3" (shape input) (at 96.52 81.28 90) (fields_autoplaced)
    (effects (font (size 1.27 1.27)) (justify left))
    (uuid 507b7ce3-525d-4c4a-b34c-c24cd59d320d)
    (property "Intersheetrefs" "${INTERSHEET_REFS}" (at 96.52 66.4 90)
      (effects (font (size 1.27 1.27)) (justify left) hide)
    )
  )
  (global_label "SENSOR_3V3" (shape input) (at 207.01 120.65 0) (fields_autoplaced)
    (effects (font (size 1.27 1.27)) (justify left))
    (uuid 9225c321-2e11-4d1b-8dde-a3461df366e5)
    (property "Intersheetrefs" "${INTERSHEET_REFS}" (at 221.89 120.65 0)
      (effects (font (size 1.27 1.27)) (justify left) hide)
    )
  )
  (global_label "TIM1_CH1" (shape input) (at 82.55 88.9 180) (fields_autoplaced)
    (effects (font (size 1.27 1.27)) (justify right))
    (uuid a2c07764-37b0-406f-bf9b-91666e43258f)
    (property "Intersheetrefs" "${INTERSHEET_REFS}" (at 70.6333 88.9 0)
      (effects (font (size 1.27 1.27)) (justify right) hide)
    )
  )
  (global_label "TIM2_CH2" (shape input) (at 83.82 96.52 180) (fields_autoplaced)
    (effects (font (size 1.27 1.27)) (justify right))
    (uuid e93bcd36-2b89-447c-8f5e-3deb14dfc84f)
    (property "Intersheetrefs" "${INTERSHEET_REFS}" (at 71.9033 96.52 0)
      (effects (font (size 1.27 1.27)) (justify right) hide)
    )
  )
  (global_label "HEATER_GND" (shape input) (at 96.52 113.03 0) (fields_autoplaced)
    (effects (font (size 1.27 1.27)) (justify left))
    (uuid edf5dfb0-3bb4-404f-aadc-276846c63452)
    (property "Intersheetrefs" "${INTERSHEET_REFS}" (at 111.2186 113.03 0)
      (effects (font (size 1.27 1.27)) (justify left) hide)
    )
  )
  (global_label "ADC_HEAT_MON" (shape input) (at 222.25 124.46 0) (fields_autoplaced)
    (effects (font (size 1.27 1.27)) (justify left))
    (uuid f3aabde4-eb5f-479a-8526-65beb2375343)
    (property "Intersheetrefs" "${INTERSHEET_REFS}" (at 239.3677 124.46 0)
      (effects (font (size 1.27 1.27)) (justify left) hide)
    )
  )

  (symbol (lib_id "Device:R_Small") (at 146.05 137.16 90) (unit 1)
    (in_bom yes) (on_board yes) (dnp no) (fields_autoplaced)
    (uuid 348ea6d5-ec92-401e-8e5a-c3271197c9e7)
    (property "Reference" "R14" (at 146.05 132.08 90)
      (effects (font (size 1.27 1.27)))
    )
    (property "Value" "1K 0603" (at 146.05 134.62 90)
      (effects (font (size 1.27 1.27)))
    )
    (property "Footprint" "Resistor_SMD:R_0603_1608Metric" (at 146.05 137.16 0)
      (effects (font (size 1.27 1.27)) hide)
    )
    (property "Datasheet" "~" (at 146.05 137.16 0)
      (effects (font (size 1.27 1.27)) hide)
    )
    (pin "1" (uuid 5da4dc3d-a43b-4d20-aa54-14802ce6022e))
    (pin "2" (uuid 7cd4d680-f96d-4005-85d0-2a5c7b158ca6))
    (instances
      (project "wally_bee"
        (path "/208d521e-11bf-46c8-b547-4413b3b47868/66fb427b-0e43-4a06-8079-d6fd7876413c"
          (reference "R14") (unit 1)
        )
        (path "/208d521e-11bf-46c8-b547-4413b3b47868/8d853ff9-ecfe-4d1d-bf90-bd4e1540fba1"
          (reference "R33") (unit 1)
        )
        (path "/208d521e-11bf-46c8-b547-4413b3b47868/06ed8fdc-2a60-4ce2-8603-e2f664805afc"
          (reference "R27") (unit 1)
        )
      )
      (project "honey_cell_0603"
        (path "/f649b29b-4f04-437c-ad34-5dad5a788578/4b35065c-6952-46ea-9eb6-f2420bd4c108"
          (reference "R8") (unit 1)
        )
        (path "/f649b29b-4f04-437c-ad34-5dad5a788578/62cc237c-a75e-4e7f-bfa9-77b7d3eacf7c"
          (reference "R11") (unit 1)
        )
      )
    )
  )

  (symbol (lib_id "New_Library:LMV321ILT") (at 113.03 120.65 0) (unit 1)
    (in_bom yes) (on_board yes) (dnp no) (fields_autoplaced)
    (uuid 371095aa-07ca-44a9-a254-a8884af1e769)
    (property "Reference" "CR1" (at 158.75 111.76 0)
      (effects (font (size 1.524 1.524)))
    )
    (property "Value" "LMV321ILT" (at 158.75 114.3 0)
      (effects (font (size 1.524 1.524)))
    )
    (property "Footprint" "SOT23-5_STM" (at 113.03 120.65 0)
      (effects (font (size 1.27 1.27) italic) hide)
    )
    (property "Datasheet" "LMV321ILT" (at 113.03 120.65 0)
      (effects (font (size 1.27 1.27) italic) hide)
    )
    (pin "1" (uuid 046a18e4-d450-49ac-8399-82db2106522f))
    (pin "2" (uuid 0ef53c38-b3d1-4b83-a0a4-b7dc81700e20))
    (pin "3" (uuid 25751d0b-0b39-44de-a073-61406a84f43e))
    (pin "4" (uuid 31eae2ba-706a-473d-9e0d-fb7746dcdf5d))
    (pin "5" (uuid 315e49b0-27f0-4946-b0ec-ff8bbb086014))
    (instances
      (project "wally_bee"
        (path "/208d521e-11bf-46c8-b547-4413b3b47868/8d853ff9-ecfe-4d1d-bf90-bd4e1540fba1"
          (reference "CR1") (unit 1)
        )
        (path "/208d521e-11bf-46c8-b547-4413b3b47868/06ed8fdc-2a60-4ce2-8603-e2f664805afc"
          (reference "CR1") (unit 1)
        )
      )
    )
  )

  (symbol (lib_id "Motor:Fan_Tacho_PWM") (at 96.52 91.44 0) (unit 1)
    (in_bom yes) (on_board yes) (dnp no) (fields_autoplaced)
    (uuid 47d44c98-0aa7-49f4-94a5-1a7b5cf9c8a5)
    (property "Reference" "M3" (at 101.6 90.805 0)
      (effects (font (size 1.27 1.27)) (justify left))
    )
    (property "Value" "Fan_Tacho_PWM" (at 101.6 93.345 0)
      (effects (font (size 1.27 1.27)) (justify left))
    )
    (property "Footprint" "Connector_PinHeader_2.54mm:PinHeader_1x04_P2.54mm_Vertical" (at 96.52 91.186 0)
      (effects (font (size 1.27 1.27)) hide)
    )
    (property "Datasheet" "http://www.formfactors.org/developer%5Cspecs%5Crev1_2_public.pdf" (at 96.52 91.186 0)
      (effects (font (size 1.27 1.27)) hide)
    )
    (pin "1" (uuid 18e9dcd2-4fe4-4116-89f8-c96d8ed120da))
    (pin "2" (uuid 6c38a8e9-4567-43d4-85c0-03673ec07adb))
    (pin "3" (uuid ccb6ad3b-dae6-4926-8d4d-0efcf8754ae3))
    (pin "4" (uuid c1cc16c5-dff1-451d-bfca-62c2adc4ad17))
    (instances
      (project "wally_bee"
        (path "/208d521e-11bf-46c8-b547-4413b3b47868/06ed8fdc-2a60-4ce2-8603-e2f664805afc"
          (reference "M3") (unit 1)
        )
      )
    )
  )

  (symbol (lib_id "Device:R_Small") (at 193.04 144.78 90) (unit 1)
    (in_bom yes) (on_board yes) (dnp no) (fields_autoplaced)
    (uuid 490b549e-9db0-4799-a566-a179b26e1bdd)
    (property "Reference" "R14" (at 193.04 139.7 90)
      (effects (font (size 1.27 1.27)))
    )
    (property "Value" "27K 0603" (at 193.04 142.24 90)
      (effects (font (size 1.27 1.27)))
    )
    (property "Footprint" "Resistor_SMD:R_0603_1608Metric" (at 193.04 144.78 0)
      (effects (font (size 1.27 1.27)) hide)
    )
    (property "Datasheet" "~" (at 193.04 144.78 0)
      (effects (font (size 1.27 1.27)) hide)
    )
    (pin "1" (uuid b09b7d64-695a-49b9-a24d-ae9320f52102))
    (pin "2" (uuid b8058d40-5192-4778-b19e-eb8066234162))
    (instances
      (project "wally_bee"
        (path "/208d521e-11bf-46c8-b547-4413b3b47868/66fb427b-0e43-4a06-8079-d6fd7876413c"
          (reference "R14") (unit 1)
        )
        (path "/208d521e-11bf-46c8-b547-4413b3b47868/8d853ff9-ecfe-4d1d-bf90-bd4e1540fba1"
          (reference "R31") (unit 1)
        )
        (path "/208d521e-11bf-46c8-b547-4413b3b47868/06ed8fdc-2a60-4ce2-8603-e2f664805afc"
          (reference "R28") (unit 1)
        )
      )
      (project "honey_cell_0603"
        (path "/f649b29b-4f04-437c-ad34-5dad5a788578/4b35065c-6952-46ea-9eb6-f2420bd4c108"
          (reference "R8") (unit 1)
        )
        (path "/f649b29b-4f04-437c-ad34-5dad5a788578/62cc237c-a75e-4e7f-bfa9-77b7d3eacf7c"
          (reference "R11") (unit 1)
        )
      )
    )
  )

  (symbol (lib_id "power:GNDREF") (at 96.52 138.43 0) (unit 1)
    (in_bom yes) (on_board yes) (dnp no) (fields_autoplaced)
    (uuid 699f0921-f2fd-431a-b132-f2bf6df97834)
    (property "Reference" "#PWR02" (at 96.52 144.78 0)
      (effects (font (size 1.27 1.27)) hide)
    )
    (property "Value" "GND" (at 96.52 143.51 0)
      (effects (font (size 1.27 1.27)))
    )
    (property "Footprint" "" (at 96.52 138.43 0)
      (effects (font (size 1.27 1.27)) hide)
    )
    (property "Datasheet" "" (at 96.52 138.43 0)
      (effects (font (size 1.27 1.27)) hide)
    )
    (pin "1" (uuid d7819497-8d3e-45df-91f9-65d245686318))
    (instances
      (project "wally_bee"
        (path "/208d521e-11bf-46c8-b547-4413b3b47868/8eb2c61a-dc7a-4984-82d3-10f731f34b90"
          (reference "#PWR02") (unit 1)
        )
        (path "/208d521e-11bf-46c8-b547-4413b3b47868/664a1978-e469-4735-8c19-dc7dd930046d"
          (reference "#PWR07") (unit 1)
        )
        (path "/208d521e-11bf-46c8-b547-4413b3b47868/66fb427b-0e43-4a06-8079-d6fd7876413c"
          (reference "#PWR021") (unit 1)
        )
        (path "/208d521e-11bf-46c8-b547-4413b3b47868/8d853ff9-ecfe-4d1d-bf90-bd4e1540fba1"
          (reference "#PWR041") (unit 1)
        )
        (path "/208d521e-11bf-46c8-b547-4413b3b47868/06ed8fdc-2a60-4ce2-8603-e2f664805afc"
          (reference "#PWR036") (unit 1)
        )
      )
    )
  )

  (symbol (lib_id "Device:R_Small") (at 96.52 124.46 0) (unit 1)
    (in_bom yes) (on_board yes) (dnp no) (fields_autoplaced)
    (uuid 7160752c-9c93-4e3e-a748-00d6209a1d87)
    (property "Reference" "R14" (at 99.06 123.825 0)
      (effects (font (size 1.27 1.27)) (justify left))
    )
    (property "Value" "0.1R 0603" (at 99.06 126.365 0)
      (effects (font (size 1.27 1.27)) (justify left))
    )
    (property "Footprint" "Resistor_SMD:R_0603_1608Metric" (at 96.52 124.46 0)
      (effects (font (size 1.27 1.27)) hide)
    )
    (property "Datasheet" "~" (at 96.52 124.46 0)
      (effects (font (size 1.27 1.27)) hide)
    )
    (pin "1" (uuid b3704e19-68a7-4449-8a46-7d9b8132f4d5))
    (pin "2" (uuid ee6f9a48-82fc-4e9a-90b1-c41c1efd2c24))
    (instances
      (project "wally_bee"
        (path "/208d521e-11bf-46c8-b547-4413b3b47868/66fb427b-0e43-4a06-8079-d6fd7876413c"
          (reference "R14") (unit 1)
        )
        (path "/208d521e-11bf-46c8-b547-4413b3b47868/8d853ff9-ecfe-4d1d-bf90-bd4e1540fba1"
          (reference "R26") (unit 1)
        )
        (path "/208d521e-11bf-46c8-b547-4413b3b47868/06ed8fdc-2a60-4ce2-8603-e2f664805afc"
          (reference "R14") (unit 1)
        )
      )
      (project "honey_cell_0603"
        (path "/f649b29b-4f04-437c-ad34-5dad5a788578/4b35065c-6952-46ea-9eb6-f2420bd4c108"
          (reference "R8") (unit 1)
        )
        (path "/f649b29b-4f04-437c-ad34-5dad5a788578/62cc237c-a75e-4e7f-bfa9-77b7d3eacf7c"
          (reference "R11") (unit 1)
        )
      )
    )
  )

  (symbol (lib_id "Device:C_Small") (at 212.09 127 0) (unit 1)
    (in_bom yes) (on_board yes) (dnp no)
    (uuid cb6d2cbe-76b0-4777-b8c2-544503a6fc52)
    (property "Reference" "C7" (at 214.63 125.7362 0)
      (effects (font (size 1.27 1.27)) (justify left))
    )
    (property "Value" "10nF 0603" (at 214.63 129.54 0)
      (effects (font (size 1.27 1.27)) (justify left))
    )
    (property "Footprint" "Capacitor_SMD:C_0603_1608Metric" (at 212.09 127 0)
      (effects (font (size 1.27 1.27)) hide)
    )
    (property "Datasheet" "~" (at 212.09 127 0)
      (effects (font (size 1.27 1.27)) hide)
    )
    (pin "1" (uuid ac357ba6-441e-482f-86b9-037ff00b21d7))
    (pin "2" (uuid 13551e59-eca9-42bc-811f-8aab974b29a6))
    (instances
      (project "wally_bee"
        (path "/208d521e-11bf-46c8-b547-4413b3b47868/66fb427b-0e43-4a06-8079-d6fd7876413c"
          (reference "C7") (unit 1)
        )
        (path "/208d521e-11bf-46c8-b547-4413b3b47868/8d853ff9-ecfe-4d1d-bf90-bd4e1540fba1"
          (reference "C30") (unit 1)
        )
        (path "/208d521e-11bf-46c8-b547-4413b3b47868/06ed8fdc-2a60-4ce2-8603-e2f664805afc"
          (reference "C17") (unit 1)
        )
      )
      (project "honey_cell_0603"
        (path "/f649b29b-4f04-437c-ad34-5dad5a788578/4b35065c-6952-46ea-9eb6-f2420bd4c108"
          (reference "C11") (unit 1)
        )
        (path "/f649b29b-4f04-437c-ad34-5dad5a788578/62cc237c-a75e-4e7f-bfa9-77b7d3eacf7c"
          (reference "C11") (unit 1)
        )
      )
    )
  )

  (symbol (lib_id "Device:R_Small") (at 203.2 144.78 90) (unit 1)
    (in_bom yes) (on_board yes) (dnp no) (fields_autoplaced)
    (uuid db8145fa-6c05-446f-a700-f18a90761dfe)
    (property "Reference" "R14" (at 203.2 139.7 90)
      (effects (font (size 1.27 1.27)))
    )
    (property "Value" "2K 0603" (at 203.2 142.24 90)
      (effects (font (size 1.27 1.27)))
    )
    (property "Footprint" "Resistor_SMD:R_0603_1608Metric" (at 203.2 144.78 0)
      (effects (font (size 1.27 1.27)) hide)
    )
    (property "Datasheet" "~" (at 203.2 144.78 0)
      (effects (font (size 1.27 1.27)) hide)
    )
    (pin "1" (uuid 9965e8ae-43c2-4c87-9ec8-0d26a99b7fad))
    (pin "2" (uuid 99708409-af09-4aec-9243-c004217a8d72))
    (instances
      (project "wally_bee"
        (path "/208d521e-11bf-46c8-b547-4413b3b47868/66fb427b-0e43-4a06-8079-d6fd7876413c"
          (reference "R14") (unit 1)
        )
        (path "/208d521e-11bf-46c8-b547-4413b3b47868/8d853ff9-ecfe-4d1d-bf90-bd4e1540fba1"
          (reference "R32") (unit 1)
        )
        (path "/208d521e-11bf-46c8-b547-4413b3b47868/06ed8fdc-2a60-4ce2-8603-e2f664805afc"
          (reference "R29") (unit 1)
        )
      )
      (project "honey_cell_0603"
        (path "/f649b29b-4f04-437c-ad34-5dad5a788578/4b35065c-6952-46ea-9eb6-f2420bd4c108"
          (reference "R8") (unit 1)
        )
        (path "/f649b29b-4f04-437c-ad34-5dad5a788578/62cc237c-a75e-4e7f-bfa9-77b7d3eacf7c"
          (reference "R11") (unit 1)
        )
      )
    )
  )

  (symbol (lib_id "power:GNDREF") (at 111.76 124.46 0) (unit 1)
    (in_bom yes) (on_board yes) (dnp no) (fields_autoplaced)
    (uuid e0ab26f4-eae5-441c-8ed3-4c4314935048)
    (property "Reference" "#PWR02" (at 111.76 130.81 0)
      (effects (font (size 1.27 1.27)) hide)
    )
    (property "Value" "GND" (at 111.76 129.54 0)
      (effects (font (size 1.27 1.27)))
    )
    (property "Footprint" "" (at 111.76 124.46 0)
      (effects (font (size 1.27 1.27)) hide)
    )
    (property "Datasheet" "" (at 111.76 124.46 0)
      (effects (font (size 1.27 1.27)) hide)
    )
    (pin "1" (uuid 62ab34ba-4ad5-4763-90be-6ef84c251cbd))
    (instances
      (project "wally_bee"
        (path "/208d521e-11bf-46c8-b547-4413b3b47868/8eb2c61a-dc7a-4984-82d3-10f731f34b90"
          (reference "#PWR02") (unit 1)
        )
        (path "/208d521e-11bf-46c8-b547-4413b3b47868/664a1978-e469-4735-8c19-dc7dd930046d"
          (reference "#PWR07") (unit 1)
        )
        (path "/208d521e-11bf-46c8-b547-4413b3b47868/66fb427b-0e43-4a06-8079-d6fd7876413c"
          (reference "#PWR021") (unit 1)
        )
        (path "/208d521e-11bf-46c8-b547-4413b3b47868/8d853ff9-ecfe-4d1d-bf90-bd4e1540fba1"
          (reference "#PWR039") (unit 1)
        )
        (path "/208d521e-11bf-46c8-b547-4413b3b47868/06ed8fdc-2a60-4ce2-8603-e2f664805afc"
          (reference "#PWR039") (unit 1)
        )
      )
    )
  )

  (symbol (lib_id "power:GNDREF") (at 212.09 134.62 0) (unit 1)
    (in_bom yes) (on_board yes) (dnp no) (fields_autoplaced)
    (uuid ec752e70-af4b-40f7-983b-8a3512a062ba)
    (property "Reference" "#PWR02" (at 212.09 140.97 0)
      (effects (font (size 1.27 1.27)) hide)
    )
    (property "Value" "GND" (at 212.09 139.7 0)
      (effects (font (size 1.27 1.27)))
    )
    (property "Footprint" "" (at 212.09 134.62 0)
      (effects (font (size 1.27 1.27)) hide)
    )
    (property "Datasheet" "" (at 212.09 134.62 0)
      (effects (font (size 1.27 1.27)) hide)
    )
    (pin "1" (uuid 0a3afeee-93fa-45db-9315-6a609a56ee2e))
    (instances
      (project "wally_bee"
        (path "/208d521e-11bf-46c8-b547-4413b3b47868/8eb2c61a-dc7a-4984-82d3-10f731f34b90"
          (reference "#PWR02") (unit 1)
        )
        (path "/208d521e-11bf-46c8-b547-4413b3b47868/664a1978-e469-4735-8c19-dc7dd930046d"
          (reference "#PWR07") (unit 1)
        )
        (path "/208d521e-11bf-46c8-b547-4413b3b47868/66fb427b-0e43-4a06-8079-d6fd7876413c"
          (reference "#PWR021") (unit 1)
        )
        (path "/208d521e-11bf-46c8-b547-4413b3b47868/8d853ff9-ecfe-4d1d-bf90-bd4e1540fba1"
          (reference "#PWR036") (unit 1)
        )
        (path "/208d521e-11bf-46c8-b547-4413b3b47868/06ed8fdc-2a60-4ce2-8603-e2f664805afc"
          (reference "#PWR041") (unit 1)
        )
      )
    )
  )

  (symbol (lib_id "Device:R_Small") (at 101.6 133.35 0) (unit 1)
    (in_bom yes) (on_board yes) (dnp no) (fields_autoplaced)
    (uuid feeacd5f-6856-4ccc-8adf-1d0857996726)
    (property "Reference" "R14" (at 103.0986 132.5153 0)
      (effects (font (size 1.27 1.27)) (justify left))
    )
    (property "Value" "0.1R 0603" (at 103.0986 135.0522 0)
      (effects (font (size 1.27 1.27)) (justify left))
    )
    (property "Footprint" "Resistor_SMD:R_0603_1608Metric" (at 101.6 133.35 0)
      (effects (font (size 1.27 1.27)) hide)
    )
    (property "Datasheet" "~" (at 101.6 133.35 0)
      (effects (font (size 1.27 1.27)) hide)
    )
    (pin "1" (uuid fb4156a0-025f-4a5c-bef1-43280a07fdab))
    (pin "2" (uuid 583ac9fe-b077-406c-b546-c8bfe84dc807))
    (instances
      (project "wally_bee"
        (path "/208d521e-11bf-46c8-b547-4413b3b47868/66fb427b-0e43-4a06-8079-d6fd7876413c"
          (reference "R14") (unit 1)
        )
        (path "/208d521e-11bf-46c8-b547-4413b3b47868/8d853ff9-ecfe-4d1d-bf90-bd4e1540fba1"
          (reference "R27") (unit 1)
        )
        (path "/208d521e-11bf-46c8-b547-4413b3b47868/06ed8fdc-2a60-4ce2-8603-e2f664805afc"
          (reference "R26") (unit 1)
        )
      )
      (project "honey_cell_0603"
        (path "/f649b29b-4f04-437c-ad34-5dad5a788578/4b35065c-6952-46ea-9eb6-f2420bd4c108"
          (reference "R8") (unit 1)
        )
        (path "/f649b29b-4f04-437c-ad34-5dad5a788578/62cc237c-a75e-4e7f-bfa9-77b7d3eacf7c"
          (reference "R11") (unit 1)
        )
      )
    )
  )
)
