(kicad_sch (version 20230121) (generator eeschema)

  (uuid dcff31d0-0917-4462-bcb3-1c5d61da275e)

  (paper "A4")

  (lib_symbols
    (symbol "Device:C_Small" (pin_numbers hide) (pin_names (offset 0.254) hide) (in_bom yes) (on_board yes)
      (property "Reference" "C" (at 0.254 1.778 0)
        (effects (font (size 1.27 1.27)) (justify left))
      )
      (property "Value" "C_Small" (at 0.254 -2.032 0)
        (effects (font (size 1.27 1.27)) (justify left))
      )
      (property "Footprint" "" (at 0 0 0)
        (effects (font (size 1.27 1.27)) hide)
      )
      (property "Datasheet" "~" (at 0 0 0)
        (effects (font (size 1.27 1.27)) hide)
      )
      (property "ki_keywords" "capacitor cap" (at 0 0 0)
        (effects (font (size 1.27 1.27)) hide)
      )
      (property "ki_description" "Unpolarized capacitor, small symbol" (at 0 0 0)
        (effects (font (size 1.27 1.27)) hide)
      )
      (property "ki_fp_filters" "C_*" (at 0 0 0)
        (effects (font (size 1.27 1.27)) hide)
      )
      (symbol "C_Small_0_1"
        (polyline
          (pts
            (xy -1.524 -0.508)
            (xy 1.524 -0.508)
          )
          (stroke (width 0.3302) (type default))
          (fill (type none))
        )
        (polyline
          (pts
            (xy -1.524 0.508)
            (xy 1.524 0.508)
          )
          (stroke (width 0.3048) (type default))
          (fill (type none))
        )
      )
      (symbol "C_Small_1_1"
        (pin passive line (at 0 2.54 270) (length 2.032)
          (name "~" (effects (font (size 1.27 1.27))))
          (number "1" (effects (font (size 1.27 1.27))))
        )
        (pin passive line (at 0 -2.54 90) (length 2.032)
          (name "~" (effects (font (size 1.27 1.27))))
          (number "2" (effects (font (size 1.27 1.27))))
        )
      )
    )
    (symbol "Device:R_Small" (pin_numbers hide) (pin_names (offset 0.254) hide) (in_bom yes) (on_board yes)
      (property "Reference" "R" (at 0.762 0.508 0)
        (effects (font (size 1.27 1.27)) (justify left))
      )
      (property "Value" "R_Small" (at 0.762 -1.016 0)
        (effects (font (size 1.27 1.27)) (justify left))
      )
      (property "Footprint" "" (at 0 0 0)
        (effects (font (size 1.27 1.27)) hide)
      )
      (property "Datasheet" "~" (at 0 0 0)
        (effects (font (size 1.27 1.27)) hide)
      )
      (property "ki_keywords" "R resistor" (at 0 0 0)
        (effects (font (size 1.27 1.27)) hide)
      )
      (property "ki_description" "Resistor, small symbol" (at 0 0 0)
        (effects (font (size 1.27 1.27)) hide)
      )
      (property "ki_fp_filters" "R_*" (at 0 0 0)
        (effects (font (size 1.27 1.27)) hide)
      )
      (symbol "R_Small_0_1"
        (rectangle (start -0.762 1.778) (end 0.762 -1.778)
          (stroke (width 0.2032) (type default))
          (fill (type none))
        )
      )
      (symbol "R_Small_1_1"
        (pin passive line (at 0 2.54 270) (length 0.762)
          (name "~" (effects (font (size 1.27 1.27))))
          (number "1" (effects (font (size 1.27 1.27))))
        )
        (pin passive line (at 0 -2.54 90) (length 0.762)
          (name "~" (effects (font (size 1.27 1.27))))
          (number "2" (effects (font (size 1.27 1.27))))
        )
      )
    )
    (symbol "New_Library:ICS-43434" (in_bom yes) (on_board yes)
      (property "Reference" "IC" (at 21.59 7.62 0)
        (effects (font (size 1.27 1.27)) (justify left top))
      )
      (property "Value" "ICS-43434" (at 21.59 5.08 0)
        (effects (font (size 1.27 1.27)) (justify left top))
      )
      (property "Footprint" "ICS43434" (at 21.59 -94.92 0)
        (effects (font (size 1.27 1.27)) (justify left top) hide)
      )
      (property "Datasheet" "https://www.digikey.in/en/products/detail/tdk-invensense/ICS-43434/6140298?s=N4IgjCBcoCwdIDGUBmBDANgZwKYBoQB7KAbRAGZyAOKgdgCYQBdAgBwBcoQBldgJwCWAOwDmIAL4EYANiihkkdNnxFS4MDHoBOZm06Qe-YWMngtVHQgVLcBYpDIAGXSA5deg0RIIBaRlah%2BAFcVezIAVmZTH3h5VExbVQdwTSoo01kEA" (at 21.59 -194.92 0)
        (effects (font (size 1.27 1.27)) (justify left top) hide)
      )
      (property "Height" "0.98" (at 21.59 -394.92 0)
        (effects (font (size 1.27 1.27)) (justify left top) hide)
      )
      (property "Mouser Part Number" "410-ICS-43434" (at 21.59 -494.92 0)
        (effects (font (size 1.27 1.27)) (justify left top) hide)
      )
      (property "Mouser Price/Stock" "https://www.mouser.co.uk/ProductDetail/TDK-InvenSense/ICS-43434?qs=u4fy%2FsgLU9PAgmWRI7%252BqXA%3D%3D" (at 21.59 -594.92 0)
        (effects (font (size 1.27 1.27)) (justify left top) hide)
      )
      (property "Manufacturer_Name" "TDK" (at 21.59 -694.92 0)
        (effects (font (size 1.27 1.27)) (justify left top) hide)
      )
      (property "Manufacturer_Part_Number" "ICS-43434" (at 21.59 -794.92 0)
        (effects (font (size 1.27 1.27)) (justify left top) hide)
      )
      (property "ki_description" "MEMS Microphones (Microphone), SNR(Nom)=65dBA, LxWxT (mm)=3.5x2.65x0.98" (at 0 0 0)
        (effects (font (size 1.27 1.27)) hide)
      )
      (symbol "ICS-43434_1_1"
        (rectangle (start 5.08 2.54) (end 20.32 -7.62)
          (stroke (width 0.254) (type default))
          (fill (type background))
        )
        (pin passive line (at 0 0 0) (length 5.08)
          (name "WS" (effects (font (size 1.27 1.27))))
          (number "1" (effects (font (size 1.27 1.27))))
        )
        (pin passive line (at 0 -2.54 0) (length 5.08)
          (name "LR" (effects (font (size 1.27 1.27))))
          (number "2" (effects (font (size 1.27 1.27))))
        )
        (pin passive line (at 0 -5.08 0) (length 5.08)
          (name "GND" (effects (font (size 1.27 1.27))))
          (number "3" (effects (font (size 1.27 1.27))))
        )
        (pin passive line (at 25.4 0 180) (length 5.08)
          (name "SCK" (effects (font (size 1.27 1.27))))
          (number "4" (effects (font (size 1.27 1.27))))
        )
        (pin passive line (at 25.4 -2.54 180) (length 5.08)
          (name "VDD" (effects (font (size 1.27 1.27))))
          (number "5" (effects (font (size 1.27 1.27))))
        )
        (pin passive line (at 25.4 -5.08 180) (length 5.08)
          (name "SD" (effects (font (size 1.27 1.27))))
          (number "6" (effects (font (size 1.27 1.27))))
        )
      )
    )
    (symbol "power:GNDREF" (power) (pin_names (offset 0)) (in_bom yes) (on_board yes)
      (property "Reference" "#PWR" (at 0 -6.35 0)
        (effects (font (size 1.27 1.27)) hide)
      )
      (property "Value" "GNDREF" (at 0 -3.81 0)
        (effects (font (size 1.27 1.27)))
      )
      (property "Footprint" "" (at 0 0 0)
        (effects (font (size 1.27 1.27)) hide)
      )
      (property "Datasheet" "" (at 0 0 0)
        (effects (font (size 1.27 1.27)) hide)
      )
      (property "ki_keywords" "global power" (at 0 0 0)
        (effects (font (size 1.27 1.27)) hide)
      )
      (property "ki_description" "Power symbol creates a global label with name \"GNDREF\" , reference supply ground" (at 0 0 0)
        (effects (font (size 1.27 1.27)) hide)
      )
      (symbol "GNDREF_0_1"
        (polyline
          (pts
            (xy -0.635 -1.905)
            (xy 0.635 -1.905)
          )
          (stroke (width 0) (type default))
          (fill (type none))
        )
        (polyline
          (pts
            (xy -0.127 -2.54)
            (xy 0.127 -2.54)
          )
          (stroke (width 0) (type default))
          (fill (type none))
        )
        (polyline
          (pts
            (xy 0 -1.27)
            (xy 0 0)
          )
          (stroke (width 0) (type default))
          (fill (type none))
        )
        (polyline
          (pts
            (xy 1.27 -1.27)
            (xy -1.27 -1.27)
          )
          (stroke (width 0) (type default))
          (fill (type none))
        )
      )
      (symbol "GNDREF_1_1"
        (pin power_in line (at 0 0 270) (length 0) hide
          (name "GNDREF" (effects (font (size 1.27 1.27))))
          (number "1" (effects (font (size 1.27 1.27))))
        )
      )
    )
  )

  (junction (at 100.965 93.345) (diameter 0) (color 0 0 0 0)
    (uuid 2c55a63f-89d6-4696-afed-87124b61d9ae)
  )
  (junction (at 217.805 97.155) (diameter 0) (color 0 0 0 0)
    (uuid 51179abf-2935-47fe-bf47-0ebe0d16ce20)
  )
  (junction (at 57.15 97.79) (diameter 0) (color 0 0 0 0)
    (uuid 59ddf6b5-6665-4554-a215-7bb55a72d458)
  )
  (junction (at 109.855 100.965) (diameter 0) (color 0 0 0 0)
    (uuid c02703e5-2209-4b53-8c0e-df1e8120944e)
  )
  (junction (at 208.915 89.535) (diameter 0) (color 0 0 0 0)
    (uuid d4db2e5e-efcb-461f-9288-22ecd53c72d3)
  )

  (wire (pts (xy 204.47 86.995) (xy 204.47 91.44))
    (stroke (width 0) (type default))
    (uuid 0203581f-22b9-4c06-8982-37688e23cf9d)
  )
  (wire (pts (xy 67.945 88.265) (xy 67.945 86.36))
    (stroke (width 0) (type default))
    (uuid 03068758-f2af-46d3-8f68-991c037a8f54)
  )
  (wire (pts (xy 173.355 85.09) (xy 173.355 88.9))
    (stroke (width 0) (type default))
    (uuid 209bb5e7-bd22-48b3-8178-609af2d575f6)
  )
  (wire (pts (xy 93.345 90.805) (xy 100.965 90.805))
    (stroke (width 0) (type default))
    (uuid 27258279-3502-4292-b0ef-6f6901ff75a9)
  )
  (wire (pts (xy 225.425 97.155) (xy 217.805 97.155))
    (stroke (width 0) (type default))
    (uuid 2fefcfc3-138f-4b59-b02a-3ffa76c5d283)
  )
  (wire (pts (xy 67.945 90.17) (xy 57.15 90.17))
    (stroke (width 0) (type default))
    (uuid 30d12d4f-1ce3-49ce-bd5f-bc9639bb909f)
  )
  (wire (pts (xy 173.355 93.98) (xy 170.815 93.98))
    (stroke (width 0) (type default))
    (uuid 3872acf3-5b1f-4ed0-b53c-be86ecb4d04f)
  )
  (wire (pts (xy 208.915 86.995) (xy 208.915 89.535))
    (stroke (width 0) (type default))
    (uuid 397baab9-2ee5-4348-bc7a-20b3bf7a7ea3)
  )
  (wire (pts (xy 57.15 97.79) (xy 57.15 100.33))
    (stroke (width 0) (type default))
    (uuid 3b28c55d-c55a-45ef-bd89-e31b4f03c54d)
  )
  (wire (pts (xy 100.965 93.345) (xy 117.475 93.345))
    (stroke (width 0) (type default))
    (uuid 4618ab49-eca6-46d4-a4c5-65d3af9849a2)
  )
  (wire (pts (xy 117.475 98.425) (xy 117.475 100.965))
    (stroke (width 0) (type default))
    (uuid 52497341-6421-404e-9e1d-23c3ac024e86)
  )
  (wire (pts (xy 201.93 93.98) (xy 201.93 95.25))
    (stroke (width 0) (type default))
    (uuid 562555f3-e1b6-409b-bd36-556397a54892)
  )
  (wire (pts (xy 57.15 90.17) (xy 57.15 91.44))
    (stroke (width 0) (type default))
    (uuid 58340391-ae4e-4697-96cf-e8b2faac66d1)
  )
  (wire (pts (xy 93.345 86.995) (xy 93.345 88.265))
    (stroke (width 0) (type default))
    (uuid 5c653f84-eeca-488e-936a-41c94fa5c7a9)
  )
  (wire (pts (xy 67.945 93.345) (xy 67.945 97.79))
    (stroke (width 0) (type default))
    (uuid 65d8eb18-dfe5-4df5-bef7-1d57cc4597d5)
  )
  (wire (pts (xy 109.855 100.965) (xy 100.965 100.965))
    (stroke (width 0) (type default))
    (uuid 6865f936-df18-4438-af49-d72388513f25)
  )
  (wire (pts (xy 67.945 86.36) (xy 65.405 86.36))
    (stroke (width 0) (type default))
    (uuid 69d6aa63-2070-4ed9-b175-cad4cd4a5cbf)
  )
  (wire (pts (xy 156.21 91.44) (xy 156.21 88.9))
    (stroke (width 0) (type default))
    (uuid 6b1bf370-fc35-49a8-ae06-7ff4b8a32e7c)
  )
  (wire (pts (xy 156.21 81.915) (xy 156.21 83.82))
    (stroke (width 0) (type default))
    (uuid 726ab6c3-1d65-49f3-832f-9ed8fe6a8800)
  )
  (wire (pts (xy 109.855 100.965) (xy 109.855 103.505))
    (stroke (width 0) (type default))
    (uuid 7ad172da-e677-49a2-a3ea-145a82c1a85a)
  )
  (wire (pts (xy 93.345 93.345) (xy 95.25 93.345))
    (stroke (width 0) (type default))
    (uuid 7c923eee-e4b4-4f29-894b-3d2272af0df5)
  )
  (wire (pts (xy 198.755 93.98) (xy 201.93 93.98))
    (stroke (width 0) (type default))
    (uuid 82683f0e-eb87-4806-9e75-95abb04b82fd)
  )
  (wire (pts (xy 171.45 85.09) (xy 173.355 85.09))
    (stroke (width 0) (type default))
    (uuid 859c0557-d122-4c9d-a870-1c180f13dc27)
  )
  (wire (pts (xy 198.755 88.9) (xy 200.025 88.9))
    (stroke (width 0) (type default))
    (uuid 86f47a61-a03c-46e6-8b22-71c8147a01e0)
  )
  (wire (pts (xy 100.965 90.805) (xy 100.965 93.345))
    (stroke (width 0) (type default))
    (uuid 8d78cbf3-0d50-407b-a3af-2d2c954f653d)
  )
  (wire (pts (xy 204.47 86.995) (xy 208.915 86.995))
    (stroke (width 0) (type default))
    (uuid 8ef3841a-4f0d-4b07-8e33-01041f402bf0)
  )
  (wire (pts (xy 100.965 100.965) (xy 100.965 98.425))
    (stroke (width 0) (type default))
    (uuid 96f0cb4c-5282-43f6-abf7-fdbe1a12ffd2)
  )
  (wire (pts (xy 117.475 100.965) (xy 109.855 100.965))
    (stroke (width 0) (type default))
    (uuid 9817f9a6-8fdb-46cf-9a48-b78d2403ad57)
  )
  (wire (pts (xy 217.805 97.155) (xy 217.805 99.695))
    (stroke (width 0) (type default))
    (uuid 9dd5c099-11c0-41c0-8126-4553a2a03876)
  )
  (wire (pts (xy 170.815 93.98) (xy 170.815 94.615))
    (stroke (width 0) (type default))
    (uuid a10d33f0-520d-4e50-9bce-66bacb11ce03)
  )
  (wire (pts (xy 217.805 97.155) (xy 208.915 97.155))
    (stroke (width 0) (type default))
    (uuid b7ba4e9e-be6a-4e14-828a-78cab4812d8a)
  )
  (wire (pts (xy 225.425 94.615) (xy 225.425 97.155))
    (stroke (width 0) (type default))
    (uuid c3405c2f-b9b3-4446-8fa7-38e3ac5d81ee)
  )
  (wire (pts (xy 57.15 97.79) (xy 67.945 97.79))
    (stroke (width 0) (type default))
    (uuid ca77f61e-3906-4b4a-8361-7282a817e5f9)
  )
  (wire (pts (xy 57.15 96.52) (xy 57.15 97.79))
    (stroke (width 0) (type default))
    (uuid cbaa40f5-a4a3-4a2a-a50b-67ee660fd8f4)
  )
  (wire (pts (xy 208.915 97.155) (xy 208.915 94.615))
    (stroke (width 0) (type default))
    (uuid d2bce416-1b0d-498a-86ba-73a46b4acb57)
  )
  (wire (pts (xy 173.355 91.44) (xy 156.21 91.44))
    (stroke (width 0) (type default))
    (uuid d942b843-c4c7-4615-a402-ff677ca58fc6)
  )
  (wire (pts (xy 208.915 89.535) (xy 225.425 89.535))
    (stroke (width 0) (type default))
    (uuid d9cbbfa7-625e-404a-a157-0f9dff885f99)
  )
  (wire (pts (xy 67.945 90.805) (xy 67.945 90.17))
    (stroke (width 0) (type default))
    (uuid e048f7c2-d057-4b84-8a81-68c95de82f93)
  )
  (wire (pts (xy 198.755 91.44) (xy 204.47 91.44))
    (stroke (width 0) (type default))
    (uuid e24d6490-6dea-4345-906e-05cb9af88bc9)
  )

  (global_label "SAI_SCK" (shape input) (at 200.025 88.9 90) (fields_autoplaced)
    (effects (font (size 1.27 1.27)) (justify left))
    (uuid 20573486-f672-4212-9c31-841bf437e1c9)
    (property "Intersheetrefs" "${INTERSHEET_REFS}" (at 200.025 78.3742 90)
      (effects (font (size 1.27 1.27)) (justify left) hide)
    )
  )
  (global_label "SENSOR_3V3" (shape input) (at 156.21 81.915 90) (fields_autoplaced)
    (effects (font (size 1.27 1.27)) (justify left))
    (uuid 206ea629-d67b-4901-8bd8-2494775d4139)
    (property "Intersheetrefs" "${INTERSHEET_REFS}" (at 156.21 67.035 90)
      (effects (font (size 1.27 1.27)) (justify left) hide)
    )
  )
  (global_label "SENSOR_3V3" (shape input) (at 98.425 90.805 90) (fields_autoplaced)
    (effects (font (size 1.27 1.27)) (justify left))
    (uuid 25721ae7-f887-4762-8a41-7f0b10c5bc24)
    (property "Intersheetrefs" "${INTERSHEET_REFS}" (at 98.425 75.925 90)
      (effects (font (size 1.27 1.27)) (justify left) hide)
    )
  )
  (global_label "SAI_SD" (shape input) (at 201.93 95.25 270) (fields_autoplaced)
    (effects (font (size 1.27 1.27)) (justify right))
    (uuid 3a115092-6e3a-4712-a306-dd60a9ec02f6)
    (property "Intersheetrefs" "${INTERSHEET_REFS}" (at 201.93 104.5058 90)
      (effects (font (size 1.27 1.27)) (justify right) hide)
    )
  )
  (global_label "SAI_SD" (shape input) (at 95.25 93.345 270) (fields_autoplaced)
    (effects (font (size 1.27 1.27)) (justify right))
    (uuid 78cdbf86-0ba1-45cc-8665-f5c583753556)
    (property "Intersheetrefs" "${INTERSHEET_REFS}" (at 95.25 102.6008 90)
      (effects (font (size 1.27 1.27)) (justify right) hide)
    )
  )
  (global_label "SAI_WS" (shape input) (at 171.45 85.09 180) (fields_autoplaced)
    (effects (font (size 1.27 1.27)) (justify right))
    (uuid 82fe46ce-1d6a-4543-a85a-b0df2f829bcb)
    (property "Intersheetrefs" "${INTERSHEET_REFS}" (at 162.0128 85.09 0)
      (effects (font (size 1.27 1.27)) (justify right) hide)
    )
  )
  (global_label "SAI_SCK" (shape input) (at 93.345 86.995 90) (fields_autoplaced)
    (effects (font (size 1.27 1.27)) (justify left))
    (uuid 884873a2-41df-46ac-b4af-78d665a497d8)
    (property "Intersheetrefs" "${INTERSHEET_REFS}" (at 93.345 76.4692 90)
      (effects (font (size 1.27 1.27)) (justify left) hide)
    )
  )
  (global_label "SAI_WS" (shape input) (at 65.405 86.36 180) (fields_autoplaced)
    (effects (font (size 1.27 1.27)) (justify right))
    (uuid d3df5b11-bfd4-4242-a43b-abb2bee767a5)
    (property "Intersheetrefs" "${INTERSHEET_REFS}" (at 55.9678 86.36 0)
      (effects (font (size 1.27 1.27)) (justify right) hide)
    )
  )
  (global_label "SENSOR_3V3" (shape input) (at 206.375 86.995 90) (fields_autoplaced)
    (effects (font (size 1.27 1.27)) (justify left))
    (uuid de2a9396-c966-4a0f-a0e5-41d5e3baa08f)
    (property "Intersheetrefs" "${INTERSHEET_REFS}" (at 206.375 72.115 90)
      (effects (font (size 1.27 1.27)) (justify left) hide)
    )
  )

  (symbol (lib_id "Device:R_Small") (at 57.15 93.98 0) (unit 1)
    (in_bom yes) (on_board yes) (dnp no) (fields_autoplaced)
    (uuid 55c579e2-087e-470a-bbe2-b48567fad17f)
    (property "Reference" "R12" (at 58.6486 93.1453 0)
      (effects (font (size 1.27 1.27)) (justify left))
    )
    (property "Value" "4.7K 0603" (at 58.6486 95.6822 0)
      (effects (font (size 1.27 1.27)) (justify left))
    )
    (property "Footprint" "Resistor_SMD:R_0603_1608Metric" (at 57.15 93.98 0)
      (effects (font (size 1.27 1.27)) hide)
    )
    (property "Datasheet" "~" (at 57.15 93.98 0)
      (effects (font (size 1.27 1.27)) hide)
    )
    (pin "1" (uuid 2aad1f71-aa55-43c9-b158-c5d20ab2bc5d))
    (pin "2" (uuid 4312a18d-2891-4159-bece-43160663708e))
    (instances
      (project "wally_bee"
        (path "/208d521e-11bf-46c8-b547-4413b3b47868/66fb427b-0e43-4a06-8079-d6fd7876413c"
          (reference "R12") (unit 1)
        )
        (path "/208d521e-11bf-46c8-b547-4413b3b47868/73db047b-031d-4687-817e-b318e515c533"
          (reference "R7") (unit 1)
        )
      )
      (project "honey_cell_0603"
        (path "/f649b29b-4f04-437c-ad34-5dad5a788578/4b35065c-6952-46ea-9eb6-f2420bd4c108"
          (reference "R5") (unit 1)
        )
        (path "/f649b29b-4f04-437c-ad34-5dad5a788578/62cc237c-a75e-4e7f-bfa9-77b7d3eacf7c"
          (reference "R5") (unit 1)
        )
      )
    )
  )

  (symbol (lib_id "Device:C_Small") (at 117.475 95.885 180) (unit 1)
    (in_bom yes) (on_board yes) (dnp no) (fields_autoplaced)
    (uuid 5948ef04-65af-4718-8f06-2206fa4a5cb0)
    (property "Reference" "C1" (at 120.015 95.2436 0)
      (effects (font (size 1.27 1.27)) (justify right))
    )
    (property "Value" "1uF 0603" (at 120.015 97.7836 0)
      (effects (font (size 1.27 1.27)) (justify right))
    )
    (property "Footprint" "Capacitor_SMD:C_0603_1608Metric" (at 117.475 95.885 0)
      (effects (font (size 1.27 1.27)) hide)
    )
    (property "Datasheet" "~" (at 117.475 95.885 0)
      (effects (font (size 1.27 1.27)) hide)
    )
    (pin "1" (uuid 39f2814f-3e98-4566-af78-75903c092d3c))
    (pin "2" (uuid e551dd3b-f3d5-4486-9ad7-ca96e12c6d88))
    (instances
      (project "wally_bee"
        (path "/208d521e-11bf-46c8-b547-4413b3b47868/8eb2c61a-dc7a-4984-82d3-10f731f34b90"
          (reference "C1") (unit 1)
        )
        (path "/208d521e-11bf-46c8-b547-4413b3b47868/664a1978-e469-4735-8c19-dc7dd930046d"
          (reference "C4") (unit 1)
        )
        (path "/208d521e-11bf-46c8-b547-4413b3b47868/486614b6-52f4-4ae7-b9a2-47a9a9840245"
          (reference "C3") (unit 1)
        )
        (path "/208d521e-11bf-46c8-b547-4413b3b47868/af839ae2-7bd9-4a06-9ce7-92a85976d817"
          (reference "C8") (unit 1)
        )
        (path "/208d521e-11bf-46c8-b547-4413b3b47868/73db047b-031d-4687-817e-b318e515c533"
          (reference "C26") (unit 1)
        )
      )
    )
  )

  (symbol (lib_id "power:GNDREF") (at 109.855 103.505 0) (unit 1)
    (in_bom yes) (on_board yes) (dnp no) (fields_autoplaced)
    (uuid 63a0c6b8-2265-4078-a596-6cc16dd87a1e)
    (property "Reference" "#PWR02" (at 109.855 109.855 0)
      (effects (font (size 1.27 1.27)) hide)
    )
    (property "Value" "GND" (at 109.855 108.585 0)
      (effects (font (size 1.27 1.27)))
    )
    (property "Footprint" "" (at 109.855 103.505 0)
      (effects (font (size 1.27 1.27)) hide)
    )
    (property "Datasheet" "" (at 109.855 103.505 0)
      (effects (font (size 1.27 1.27)) hide)
    )
    (pin "1" (uuid 94d945d5-2971-48c4-ac8f-85162f62f67e))
    (instances
      (project "wally_bee"
        (path "/208d521e-11bf-46c8-b547-4413b3b47868/8eb2c61a-dc7a-4984-82d3-10f731f34b90"
          (reference "#PWR02") (unit 1)
        )
        (path "/208d521e-11bf-46c8-b547-4413b3b47868/664a1978-e469-4735-8c19-dc7dd930046d"
          (reference "#PWR07") (unit 1)
        )
        (path "/208d521e-11bf-46c8-b547-4413b3b47868/66fb427b-0e43-4a06-8079-d6fd7876413c"
          (reference "#PWR06") (unit 1)
        )
        (path "/208d521e-11bf-46c8-b547-4413b3b47868/73db047b-031d-4687-817e-b318e515c533"
          (reference "#PWR023") (unit 1)
        )
      )
    )
  )

  (symbol (lib_id "power:GNDREF") (at 217.805 99.695 0) (unit 1)
    (in_bom yes) (on_board yes) (dnp no) (fields_autoplaced)
    (uuid 728389f9-8062-4887-8321-0f0e908e3522)
    (property "Reference" "#PWR02" (at 217.805 106.045 0)
      (effects (font (size 1.27 1.27)) hide)
    )
    (property "Value" "GND" (at 217.805 104.775 0)
      (effects (font (size 1.27 1.27)))
    )
    (property "Footprint" "" (at 217.805 99.695 0)
      (effects (font (size 1.27 1.27)) hide)
    )
    (property "Datasheet" "" (at 217.805 99.695 0)
      (effects (font (size 1.27 1.27)) hide)
    )
    (pin "1" (uuid 596b77dd-3dac-4789-9060-4d27634e02ce))
    (instances
      (project "wally_bee"
        (path "/208d521e-11bf-46c8-b547-4413b3b47868/8eb2c61a-dc7a-4984-82d3-10f731f34b90"
          (reference "#PWR02") (unit 1)
        )
        (path "/208d521e-11bf-46c8-b547-4413b3b47868/664a1978-e469-4735-8c19-dc7dd930046d"
          (reference "#PWR07") (unit 1)
        )
        (path "/208d521e-11bf-46c8-b547-4413b3b47868/66fb427b-0e43-4a06-8079-d6fd7876413c"
          (reference "#PWR06") (unit 1)
        )
        (path "/208d521e-11bf-46c8-b547-4413b3b47868/73db047b-031d-4687-817e-b318e515c533"
          (reference "#PWR030") (unit 1)
        )
      )
    )
  )

  (symbol (lib_id "Device:C_Small") (at 208.915 92.075 180) (unit 1)
    (in_bom yes) (on_board yes) (dnp no) (fields_autoplaced)
    (uuid 85b39c07-684a-4894-8e19-8aa59858a88b)
    (property "Reference" "C1" (at 211.455 91.4336 0)
      (effects (font (size 1.27 1.27)) (justify right))
    )
    (property "Value" "0.1uF 0603" (at 211.455 93.9736 0)
      (effects (font (size 1.27 1.27)) (justify right))
    )
    (property "Footprint" "Capacitor_SMD:C_0603_1608Metric" (at 208.915 92.075 0)
      (effects (font (size 1.27 1.27)) hide)
    )
    (property "Datasheet" "~" (at 208.915 92.075 0)
      (effects (font (size 1.27 1.27)) hide)
    )
    (pin "1" (uuid e759ebc0-e106-4044-a232-c38ae57c8569))
    (pin "2" (uuid faab6e4b-7a72-4ae9-9222-ef72fb04139b))
    (instances
      (project "wally_bee"
        (path "/208d521e-11bf-46c8-b547-4413b3b47868/8eb2c61a-dc7a-4984-82d3-10f731f34b90"
          (reference "C1") (unit 1)
        )
        (path "/208d521e-11bf-46c8-b547-4413b3b47868/664a1978-e469-4735-8c19-dc7dd930046d"
          (reference "C4") (unit 1)
        )
        (path "/208d521e-11bf-46c8-b547-4413b3b47868/486614b6-52f4-4ae7-b9a2-47a9a9840245"
          (reference "C3") (unit 1)
        )
        (path "/208d521e-11bf-46c8-b547-4413b3b47868/af839ae2-7bd9-4a06-9ce7-92a85976d817"
          (reference "C8") (unit 1)
        )
        (path "/208d521e-11bf-46c8-b547-4413b3b47868/73db047b-031d-4687-817e-b318e515c533"
          (reference "C31") (unit 1)
        )
      )
    )
  )

  (symbol (lib_id "New_Library:ICS-43434") (at 67.945 88.265 0) (unit 1)
    (in_bom yes) (on_board yes) (dnp no) (fields_autoplaced)
    (uuid a299f2da-d548-4913-8617-3163f82fe58b)
    (property "Reference" "IC4" (at 80.645 81.28 0)
      (effects (font (size 1.27 1.27)))
    )
    (property "Value" "ICS-43434" (at 80.645 83.82 0)
      (effects (font (size 1.27 1.27)))
    )
    (property "Footprint" "ICS43434" (at 89.535 183.185 0)
      (effects (font (size 1.27 1.27)) (justify left top) hide)
    )
    (property "Datasheet" "https://www.digikey.in/en/products/detail/tdk-invensense/ICS-43434/6140298?s=N4IgjCBcoCwdIDGUBmBDANgZwKYBoQB7KAbRAGZyAOKgdgCYQBdAgBwBcoQBldgJwCWAOwDmIAL4EYANiihkkdNnxFS4MDHoBOZm06Qe-YWMngtVHQgVLcBYpDIAGXSA5deg0RIIBaRlah%2BAFcVezIAVmZTH3h5VExbVQdwTSoo01kEA" (at 89.535 283.185 0)
      (effects (font (size 1.27 1.27)) (justify left top) hide)
    )
    (property "Height" "0.98" (at 89.535 483.185 0)
      (effects (font (size 1.27 1.27)) (justify left top) hide)
    )
    (property "Mouser Part Number" "410-ICS-43434" (at 89.535 583.185 0)
      (effects (font (size 1.27 1.27)) (justify left top) hide)
    )
    (property "Mouser Price/Stock" "https://www.mouser.co.uk/ProductDetail/TDK-InvenSense/ICS-43434?qs=u4fy%2FsgLU9PAgmWRI7%252BqXA%3D%3D" (at 89.535 683.185 0)
      (effects (font (size 1.27 1.27)) (justify left top) hide)
    )
    (property "Manufacturer_Name" "TDK" (at 89.535 783.185 0)
      (effects (font (size 1.27 1.27)) (justify left top) hide)
    )
    (property "Manufacturer_Part_Number" "ICS-43434" (at 89.535 883.185 0)
      (effects (font (size 1.27 1.27)) (justify left top) hide)
    )
    (pin "1" (uuid 506e5c91-1fd0-4fc1-aa5c-ea36474d7e08))
    (pin "2" (uuid b5068be8-7834-4f77-a1cb-a4b6179ab721))
    (pin "3" (uuid f39a58ae-83d1-4a08-9150-e25b835611be))
    (pin "4" (uuid f5c5a4cd-cb2c-4f7c-9820-6ee5d01f831a))
    (pin "5" (uuid 0568951e-8470-40ef-acbe-0e9a0f523bc5))
    (pin "6" (uuid 7c1707be-887a-4d12-9bfb-161eb598966e))
    (instances
      (project "wally_bee"
        (path "/208d521e-11bf-46c8-b547-4413b3b47868/73db047b-031d-4687-817e-b318e515c533"
          (reference "IC4") (unit 1)
        )
      )
    )
  )

  (symbol (lib_id "power:GNDREF") (at 170.815 94.615 0) (unit 1)
    (in_bom yes) (on_board yes) (dnp no) (fields_autoplaced)
    (uuid aa6267b3-e57e-441b-a9af-43af5bae65d1)
    (property "Reference" "#PWR02" (at 170.815 100.965 0)
      (effects (font (size 1.27 1.27)) hide)
    )
    (property "Value" "GND" (at 170.815 99.695 0)
      (effects (font (size 1.27 1.27)))
    )
    (property "Footprint" "" (at 170.815 94.615 0)
      (effects (font (size 1.27 1.27)) hide)
    )
    (property "Datasheet" "" (at 170.815 94.615 0)
      (effects (font (size 1.27 1.27)) hide)
    )
    (pin "1" (uuid c02cd096-f99c-4d79-9a19-145b1ac3fb7e))
    (instances
      (project "wally_bee"
        (path "/208d521e-11bf-46c8-b547-4413b3b47868/8eb2c61a-dc7a-4984-82d3-10f731f34b90"
          (reference "#PWR02") (unit 1)
        )
        (path "/208d521e-11bf-46c8-b547-4413b3b47868/664a1978-e469-4735-8c19-dc7dd930046d"
          (reference "#PWR07") (unit 1)
        )
        (path "/208d521e-11bf-46c8-b547-4413b3b47868/66fb427b-0e43-4a06-8079-d6fd7876413c"
          (reference "#PWR06") (unit 1)
        )
        (path "/208d521e-11bf-46c8-b547-4413b3b47868/73db047b-031d-4687-817e-b318e515c533"
          (reference "#PWR043") (unit 1)
        )
      )
    )
  )

  (symbol (lib_id "power:GNDREF") (at 57.15 100.33 0) (unit 1)
    (in_bom yes) (on_board yes) (dnp no) (fields_autoplaced)
    (uuid b0f5a5d0-09f0-4d7a-bd88-84c8a273bc56)
    (property "Reference" "#PWR02" (at 57.15 106.68 0)
      (effects (font (size 1.27 1.27)) hide)
    )
    (property "Value" "GND" (at 57.15 105.41 0)
      (effects (font (size 1.27 1.27)))
    )
    (property "Footprint" "" (at 57.15 100.33 0)
      (effects (font (size 1.27 1.27)) hide)
    )
    (property "Datasheet" "" (at 57.15 100.33 0)
      (effects (font (size 1.27 1.27)) hide)
    )
    (pin "1" (uuid c822ce6b-7c9c-4534-9bc3-b3ae2c30ffe9))
    (instances
      (project "wally_bee"
        (path "/208d521e-11bf-46c8-b547-4413b3b47868/8eb2c61a-dc7a-4984-82d3-10f731f34b90"
          (reference "#PWR02") (unit 1)
        )
        (path "/208d521e-11bf-46c8-b547-4413b3b47868/664a1978-e469-4735-8c19-dc7dd930046d"
          (reference "#PWR07") (unit 1)
        )
        (path "/208d521e-11bf-46c8-b547-4413b3b47868/66fb427b-0e43-4a06-8079-d6fd7876413c"
          (reference "#PWR06") (unit 1)
        )
        (path "/208d521e-11bf-46c8-b547-4413b3b47868/73db047b-031d-4687-817e-b318e515c533"
          (reference "#PWR020") (unit 1)
        )
      )
    )
  )

  (symbol (lib_id "Device:C_Small") (at 100.965 95.885 180) (unit 1)
    (in_bom yes) (on_board yes) (dnp no) (fields_autoplaced)
    (uuid ca1db2f7-ecc4-4746-b55d-94545df8c3a0)
    (property "Reference" "C1" (at 103.505 95.2436 0)
      (effects (font (size 1.27 1.27)) (justify right))
    )
    (property "Value" "0.1uF 0603" (at 103.505 97.7836 0)
      (effects (font (size 1.27 1.27)) (justify right))
    )
    (property "Footprint" "Capacitor_SMD:C_0603_1608Metric" (at 100.965 95.885 0)
      (effects (font (size 1.27 1.27)) hide)
    )
    (property "Datasheet" "~" (at 100.965 95.885 0)
      (effects (font (size 1.27 1.27)) hide)
    )
    (pin "1" (uuid 489a4ed8-078c-4960-9c6a-e7243564be16))
    (pin "2" (uuid d844be25-1dbb-4462-be17-35ebc6d1e66b))
    (instances
      (project "wally_bee"
        (path "/208d521e-11bf-46c8-b547-4413b3b47868/8eb2c61a-dc7a-4984-82d3-10f731f34b90"
          (reference "C1") (unit 1)
        )
        (path "/208d521e-11bf-46c8-b547-4413b3b47868/664a1978-e469-4735-8c19-dc7dd930046d"
          (reference "C4") (unit 1)
        )
        (path "/208d521e-11bf-46c8-b547-4413b3b47868/486614b6-52f4-4ae7-b9a2-47a9a9840245"
          (reference "C3") (unit 1)
        )
        (path "/208d521e-11bf-46c8-b547-4413b3b47868/af839ae2-7bd9-4a06-9ce7-92a85976d817"
          (reference "C8") (unit 1)
        )
        (path "/208d521e-11bf-46c8-b547-4413b3b47868/73db047b-031d-4687-817e-b318e515c533"
          (reference "C3") (unit 1)
        )
      )
    )
  )

  (symbol (lib_id "Device:R_Small") (at 156.21 86.36 0) (unit 1)
    (in_bom yes) (on_board yes) (dnp no) (fields_autoplaced)
    (uuid cb954930-5987-4e44-85e3-b5b7a33444e4)
    (property "Reference" "R12" (at 157.7086 85.5253 0)
      (effects (font (size 1.27 1.27)) (justify left))
    )
    (property "Value" "4.7K 0603" (at 157.7086 88.0622 0)
      (effects (font (size 1.27 1.27)) (justify left))
    )
    (property "Footprint" "Resistor_SMD:R_0603_1608Metric" (at 156.21 86.36 0)
      (effects (font (size 1.27 1.27)) hide)
    )
    (property "Datasheet" "~" (at 156.21 86.36 0)
      (effects (font (size 1.27 1.27)) hide)
    )
    (pin "1" (uuid 11ec1d4f-93ab-4f6f-a71f-bd031184e38e))
    (pin "2" (uuid a0116a51-2de2-46a4-a7b7-48dbf94c3c32))
    (instances
      (project "wally_bee"
        (path "/208d521e-11bf-46c8-b547-4413b3b47868/66fb427b-0e43-4a06-8079-d6fd7876413c"
          (reference "R12") (unit 1)
        )
        (path "/208d521e-11bf-46c8-b547-4413b3b47868/73db047b-031d-4687-817e-b318e515c533"
          (reference "R15") (unit 1)
        )
      )
      (project "honey_cell_0603"
        (path "/f649b29b-4f04-437c-ad34-5dad5a788578/4b35065c-6952-46ea-9eb6-f2420bd4c108"
          (reference "R5") (unit 1)
        )
        (path "/f649b29b-4f04-437c-ad34-5dad5a788578/62cc237c-a75e-4e7f-bfa9-77b7d3eacf7c"
          (reference "R5") (unit 1)
        )
      )
    )
  )

  (symbol (lib_id "New_Library:ICS-43434") (at 173.355 88.9 0) (unit 1)
    (in_bom yes) (on_board yes) (dnp no) (fields_autoplaced)
    (uuid d3a03bbf-bb29-47e2-9940-f2c031eed440)
    (property "Reference" "IC5" (at 186.055 81.915 0)
      (effects (font (size 1.27 1.27)))
    )
    (property "Value" "ICS-43434" (at 186.055 84.455 0)
      (effects (font (size 1.27 1.27)))
    )
    (property "Footprint" "ICS43434" (at 194.945 183.82 0)
      (effects (font (size 1.27 1.27)) (justify left top) hide)
    )
    (property "Datasheet" "https://www.digikey.in/en/products/detail/tdk-invensense/ICS-43434/6140298?s=N4IgjCBcoCwdIDGUBmBDANgZwKYBoQB7KAbRAGZyAOKgdgCYQBdAgBwBcoQBldgJwCWAOwDmIAL4EYANiihkkdNnxFS4MDHoBOZm06Qe-YWMngtVHQgVLcBYpDIAGXSA5deg0RIIBaRlah%2BAFcVezIAVmZTH3h5VExbVQdwTSoo01kEA" (at 194.945 283.82 0)
      (effects (font (size 1.27 1.27)) (justify left top) hide)
    )
    (property "Height" "0.98" (at 194.945 483.82 0)
      (effects (font (size 1.27 1.27)) (justify left top) hide)
    )
    (property "Mouser Part Number" "410-ICS-43434" (at 194.945 583.82 0)
      (effects (font (size 1.27 1.27)) (justify left top) hide)
    )
    (property "Mouser Price/Stock" "https://www.mouser.co.uk/ProductDetail/TDK-InvenSense/ICS-43434?qs=u4fy%2FsgLU9PAgmWRI7%252BqXA%3D%3D" (at 194.945 683.82 0)
      (effects (font (size 1.27 1.27)) (justify left top) hide)
    )
    (property "Manufacturer_Name" "TDK" (at 194.945 783.82 0)
      (effects (font (size 1.27 1.27)) (justify left top) hide)
    )
    (property "Manufacturer_Part_Number" "ICS-43434" (at 194.945 883.82 0)
      (effects (font (size 1.27 1.27)) (justify left top) hide)
    )
    (pin "1" (uuid 56e451a7-239b-4941-a532-93c9174fcdba))
    (pin "2" (uuid 4cb6fb06-aadb-4735-ac43-622d4c6a8180))
    (pin "3" (uuid bd293e47-f5ff-4050-9496-de5bf545bab1))
    (pin "4" (uuid da9f1f0f-78f8-4bcb-939e-ad4bc4f8231b))
    (pin "5" (uuid b4b99705-512b-4496-b24d-532dec1e440e))
    (pin "6" (uuid 30a92af7-afb3-42a4-ada1-0d75aef75fdc))
    (instances
      (project "wally_bee"
        (path "/208d521e-11bf-46c8-b547-4413b3b47868/73db047b-031d-4687-817e-b318e515c533"
          (reference "IC5") (unit 1)
        )
      )
    )
  )

  (symbol (lib_id "Device:C_Small") (at 225.425 92.075 180) (unit 1)
    (in_bom yes) (on_board yes) (dnp no) (fields_autoplaced)
    (uuid d7480327-7895-46dc-9447-68344ba7c56f)
    (property "Reference" "C1" (at 227.965 91.4336 0)
      (effects (font (size 1.27 1.27)) (justify right))
    )
    (property "Value" "1uF 0603" (at 227.965 93.9736 0)
      (effects (font (size 1.27 1.27)) (justify right))
    )
    (property "Footprint" "Capacitor_SMD:C_0603_1608Metric" (at 225.425 92.075 0)
      (effects (font (size 1.27 1.27)) hide)
    )
    (property "Datasheet" "~" (at 225.425 92.075 0)
      (effects (font (size 1.27 1.27)) hide)
    )
    (pin "1" (uuid 5f587128-35cc-4c25-bcae-68ff59942a81))
    (pin "2" (uuid 72dd30ed-823c-4f6b-8b2c-8a8d198851ab))
    (instances
      (project "wally_bee"
        (path "/208d521e-11bf-46c8-b547-4413b3b47868/8eb2c61a-dc7a-4984-82d3-10f731f34b90"
          (reference "C1") (unit 1)
        )
        (path "/208d521e-11bf-46c8-b547-4413b3b47868/664a1978-e469-4735-8c19-dc7dd930046d"
          (reference "C4") (unit 1)
        )
        (path "/208d521e-11bf-46c8-b547-4413b3b47868/486614b6-52f4-4ae7-b9a2-47a9a9840245"
          (reference "C3") (unit 1)
        )
        (path "/208d521e-11bf-46c8-b547-4413b3b47868/af839ae2-7bd9-4a06-9ce7-92a85976d817"
          (reference "C8") (unit 1)
        )
        (path "/208d521e-11bf-46c8-b547-4413b3b47868/73db047b-031d-4687-817e-b318e515c533"
          (reference "C32") (unit 1)
        )
      )
    )
  )
)
