(kicad_sch (version 20230121) (generator eeschema)

  (uuid cb777d34-dbec-43a8-a3a7-0c2b05765667)

  (paper "A4")

  (lib_symbols
    (symbol "Device:C_Small" (pin_numbers hide) (pin_names (offset 0.254) hide) (in_bom yes) (on_board yes)
      (property "Reference" "C" (at 0.254 1.778 0)
        (effects (font (size 1.27 1.27)) (justify left))
      )
      (property "Value" "C_Small" (at 0.254 -2.032 0)
        (effects (font (size 1.27 1.27)) (justify left))
      )
      (property "Footprint" "" (at 0 0 0)
        (effects (font (size 1.27 1.27)) hide)
      )
      (property "Datasheet" "~" (at 0 0 0)
        (effects (font (size 1.27 1.27)) hide)
      )
      (property "ki_keywords" "capacitor cap" (at 0 0 0)
        (effects (font (size 1.27 1.27)) hide)
      )
      (property "ki_description" "Unpolarized capacitor, small symbol" (at 0 0 0)
        (effects (font (size 1.27 1.27)) hide)
      )
      (property "ki_fp_filters" "C_*" (at 0 0 0)
        (effects (font (size 1.27 1.27)) hide)
      )
      (symbol "C_Small_0_1"
        (polyline
          (pts
            (xy -1.524 -0.508)
            (xy 1.524 -0.508)
          )
          (stroke (width 0.3302) (type default))
          (fill (type none))
        )
        (polyline
          (pts
            (xy -1.524 0.508)
            (xy 1.524 0.508)
          )
          (stroke (width 0.3048) (type default))
          (fill (type none))
        )
      )
      (symbol "C_Small_1_1"
        (pin passive line (at 0 2.54 270) (length 2.032)
          (name "~" (effects (font (size 1.27 1.27))))
          (number "1" (effects (font (size 1.27 1.27))))
        )
        (pin passive line (at 0 -2.54 90) (length 2.032)
          (name "~" (effects (font (size 1.27 1.27))))
          (number "2" (effects (font (size 1.27 1.27))))
        )
      )
    )
    (symbol "Device:R_Small" (pin_numbers hide) (pin_names (offset 0.254) hide) (in_bom yes) (on_board yes)
      (property "Reference" "R" (at 0.762 0.508 0)
        (effects (font (size 1.27 1.27)) (justify left))
      )
      (property "Value" "R_Small" (at 0.762 -1.016 0)
        (effects (font (size 1.27 1.27)) (justify left))
      )
      (property "Footprint" "" (at 0 0 0)
        (effects (font (size 1.27 1.27)) hide)
      )
      (property "Datasheet" "~" (at 0 0 0)
        (effects (font (size 1.27 1.27)) hide)
      )
      (property "ki_keywords" "R resistor" (at 0 0 0)
        (effects (font (size 1.27 1.27)) hide)
      )
      (property "ki_description" "Resistor, small symbol" (at 0 0 0)
        (effects (font (size 1.27 1.27)) hide)
      )
      (property "ki_fp_filters" "R_*" (at 0 0 0)
        (effects (font (size 1.27 1.27)) hide)
      )
      (symbol "R_Small_0_1"
        (rectangle (start -0.762 1.778) (end 0.762 -1.778)
          (stroke (width 0.2032) (type default))
          (fill (type none))
        )
      )
      (symbol "R_Small_1_1"
        (pin passive line (at 0 2.54 270) (length 0.762)
          (name "~" (effects (font (size 1.27 1.27))))
          (number "1" (effects (font (size 1.27 1.27))))
        )
        (pin passive line (at 0 -2.54 90) (length 0.762)
          (name "~" (effects (font (size 1.27 1.27))))
          (number "2" (effects (font (size 1.27 1.27))))
        )
      )
    )
    (symbol "Device:Speaker" (pin_names (offset 0) hide) (in_bom yes) (on_board yes)
      (property "Reference" "LS" (at 1.27 5.715 0)
        (effects (font (size 1.27 1.27)) (justify right))
      )
      (property "Value" "Speaker" (at 1.27 3.81 0)
        (effects (font (size 1.27 1.27)) (justify right))
      )
      (property "Footprint" "" (at 0 -5.08 0)
        (effects (font (size 1.27 1.27)) hide)
      )
      (property "Datasheet" "~" (at -0.254 -1.27 0)
        (effects (font (size 1.27 1.27)) hide)
      )
      (property "ki_keywords" "speaker sound" (at 0 0 0)
        (effects (font (size 1.27 1.27)) hide)
      )
      (property "ki_description" "Speaker" (at 0 0 0)
        (effects (font (size 1.27 1.27)) hide)
      )
      (symbol "Speaker_0_0"
        (rectangle (start -2.54 1.27) (end 1.016 -3.81)
          (stroke (width 0.254) (type default))
          (fill (type none))
        )
        (polyline
          (pts
            (xy 1.016 1.27)
            (xy 3.556 3.81)
            (xy 3.556 -6.35)
            (xy 1.016 -3.81)
          )
          (stroke (width 0.254) (type default))
          (fill (type none))
        )
      )
      (symbol "Speaker_1_1"
        (pin input line (at -5.08 0 0) (length 2.54)
          (name "1" (effects (font (size 1.27 1.27))))
          (number "1" (effects (font (size 1.27 1.27))))
        )
        (pin input line (at -5.08 -2.54 0) (length 2.54)
          (name "2" (effects (font (size 1.27 1.27))))
          (number "2" (effects (font (size 1.27 1.27))))
        )
      )
    )
    (symbol "New_Library:TPA2005D1DRBR" (pin_names (offset 1.016)) (in_bom yes) (on_board yes)
      (property "Reference" "U" (at -12.7 13.7 0)
        (effects (font (size 1.27 1.27)) (justify left bottom))
      )
      (property "Value" "TPA2005D1DRBR" (at -12.7 -16.7 0)
        (effects (font (size 1.27 1.27)) (justify left bottom))
      )
      (property "Footprint" "IC_DRV8601DRBT" (at 0 0 0)
        (effects (font (size 1.27 1.27)) (justify bottom) hide)
      )
      (property "Datasheet" "" (at 0 0 0)
        (effects (font (size 1.27 1.27)) hide)
      )
      (symbol "TPA2005D1DRBR_0_0"
        (rectangle (start -12.7 -12.7) (end 12.7 12.7)
          (stroke (width 0.41) (type default))
          (fill (type background))
        )
        (pin input line (at -17.78 5.08 0) (length 5.08)
          (name "~{SHUTDOWN}" (effects (font (size 1.016 1.016))))
          (number "1" (effects (font (size 1.016 1.016))))
        )
        (pin input line (at -17.78 2.54 0) (length 5.08)
          (name "IN+" (effects (font (size 1.016 1.016))))
          (number "3" (effects (font (size 1.016 1.016))))
        )
        (pin input line (at -17.78 0 0) (length 5.08)
          (name "IN-" (effects (font (size 1.016 1.016))))
          (number "4" (effects (font (size 1.016 1.016))))
        )
        (pin output line (at 17.78 5.08 180) (length 5.08)
          (name "VO+" (effects (font (size 1.016 1.016))))
          (number "5" (effects (font (size 1.016 1.016))))
        )
        (pin power_in line (at 17.78 10.16 180) (length 5.08)
          (name "VDD" (effects (font (size 1.016 1.016))))
          (number "6" (effects (font (size 1.016 1.016))))
        )
        (pin power_in line (at 17.78 -10.16 180) (length 5.08)
          (name "GND" (effects (font (size 1.016 1.016))))
          (number "7" (effects (font (size 1.016 1.016))))
        )
        (pin output line (at 17.78 2.54 180) (length 5.08)
          (name "VO-" (effects (font (size 1.016 1.016))))
          (number "8" (effects (font (size 1.016 1.016))))
        )
        (pin power_in line (at 17.78 -7.62 180) (length 5.08)
          (name "EXP" (effects (font (size 1.016 1.016))))
          (number "9" (effects (font (size 1.016 1.016))))
        )
        (pin power_in line (at 17.78 -7.62 180) (length 5.08)
          (name "EXP" (effects (font (size 1.016 1.016))))
          (number "9_1" (effects (font (size 1.016 1.016))))
        )
        (pin power_in line (at 17.78 -7.62 180) (length 5.08)
          (name "EXP" (effects (font (size 1.016 1.016))))
          (number "9_2" (effects (font (size 1.016 1.016))))
        )
        (pin power_in line (at 17.78 -7.62 180) (length 5.08)
          (name "EXP" (effects (font (size 1.016 1.016))))
          (number "9_3" (effects (font (size 1.016 1.016))))
        )
        (pin power_in line (at 17.78 -7.62 180) (length 5.08)
          (name "EXP" (effects (font (size 1.016 1.016))))
          (number "9_4" (effects (font (size 1.016 1.016))))
        )
        (pin power_in line (at 17.78 -7.62 180) (length 5.08)
          (name "EXP" (effects (font (size 1.016 1.016))))
          (number "V1" (effects (font (size 1.016 1.016))))
        )
        (pin power_in line (at 17.78 -7.62 180) (length 5.08)
          (name "EXP" (effects (font (size 1.016 1.016))))
          (number "V2" (effects (font (size 1.016 1.016))))
        )
        (pin power_in line (at 17.78 -7.62 180) (length 5.08)
          (name "EXP" (effects (font (size 1.016 1.016))))
          (number "V3" (effects (font (size 1.016 1.016))))
        )
        (pin power_in line (at 17.78 -7.62 180) (length 5.08)
          (name "EXP" (effects (font (size 1.016 1.016))))
          (number "V4" (effects (font (size 1.016 1.016))))
        )
      )
    )
    (symbol "power:GND" (power) (pin_names (offset 0)) (in_bom yes) (on_board yes)
      (property "Reference" "#PWR" (at 0 -6.35 0)
        (effects (font (size 1.27 1.27)) hide)
      )
      (property "Value" "GND" (at 0 -3.81 0)
        (effects (font (size 1.27 1.27)))
      )
      (property "Footprint" "" (at 0 0 0)
        (effects (font (size 1.27 1.27)) hide)
      )
      (property "Datasheet" "" (at 0 0 0)
        (effects (font (size 1.27 1.27)) hide)
      )
      (property "ki_keywords" "power-flag" (at 0 0 0)
        (effects (font (size 1.27 1.27)) hide)
      )
      (property "ki_description" "Power symbol creates a global label with name \"GND\" , ground" (at 0 0 0)
        (effects (font (size 1.27 1.27)) hide)
      )
      (symbol "GND_0_1"
        (polyline
          (pts
            (xy 0 0)
            (xy 0 -1.27)
            (xy 1.27 -1.27)
            (xy 0 -2.54)
            (xy -1.27 -1.27)
            (xy 0 -1.27)
          )
          (stroke (width 0) (type default))
          (fill (type none))
        )
      )
      (symbol "GND_1_1"
        (pin power_in line (at 0 0 270) (length 0) hide
          (name "GND" (effects (font (size 1.27 1.27))))
          (number "1" (effects (font (size 1.27 1.27))))
        )
      )
    )
  )

  (junction (at 177.8 63.5) (diameter 0) (color 0 0 0 0)
    (uuid 2b2db6fb-aa44-4cc5-9bb7-590b96c9aada)
  )
  (junction (at 182.88 63.5) (diameter 0) (color 0 0 0 0)
    (uuid 9766795e-2366-4e66-a26d-363d5160d06f)
  )
  (junction (at 182.88 72.39) (diameter 0) (color 0 0 0 0)
    (uuid b6654c9c-718b-46db-acbc-7a07ccca2739)
  )
  (junction (at 166.37 95.25) (diameter 0) (color 0 0 0 0)
    (uuid ed549bbc-ada8-4518-8ecc-dc7d1e4fe07f)
  )

  (wire (pts (xy 130.81 71.12) (xy 130.81 80.01))
    (stroke (width 0) (type default))
    (uuid 01f395bd-b586-4183-a398-0ef0d3b121e0)
  )
  (wire (pts (xy 166.37 74.93) (xy 166.37 63.5))
    (stroke (width 0) (type default))
    (uuid 03d9dca4-f0e4-498b-ac34-c701225dedba)
  )
  (wire (pts (xy 166.37 63.5) (xy 177.8 63.5))
    (stroke (width 0) (type default))
    (uuid 0455ec7e-adf1-42c5-a39f-ff7158a2d9c7)
  )
  (wire (pts (xy 114.3 85.09) (xy 119.38 85.09))
    (stroke (width 0) (type default))
    (uuid 0cd4ce83-a58f-4855-b817-2851bbc7349c)
  )
  (wire (pts (xy 172.72 95.25) (xy 172.72 99.06))
    (stroke (width 0) (type default))
    (uuid 1ba39d4e-e08c-40d9-be7c-122452a817e9)
  )
  (wire (pts (xy 124.46 85.09) (xy 130.81 85.09))
    (stroke (width 0) (type default))
    (uuid 1da1b739-afb8-451f-8fcf-2021a35fd97e)
  )
  (wire (pts (xy 132.08 62.23) (xy 132.08 64.77))
    (stroke (width 0) (type default))
    (uuid 25d74099-d0ff-48c6-bc07-a9d7d3b306fa)
  )
  (wire (pts (xy 124.46 77.47) (xy 124.46 82.55))
    (stroke (width 0) (type default))
    (uuid 35b2b171-f633-405e-b822-bf6823ba0e06)
  )
  (wire (pts (xy 101.6 77.47) (xy 109.22 77.47))
    (stroke (width 0) (type default))
    (uuid 3fdd5451-c14e-4dc4-af63-5d91261358c4)
  )
  (wire (pts (xy 132.08 69.85) (xy 132.08 71.12))
    (stroke (width 0) (type default))
    (uuid 46986d44-8139-40c2-a858-9b5500a0b54d)
  )
  (wire (pts (xy 177.8 68.58) (xy 177.8 72.39))
    (stroke (width 0) (type default))
    (uuid 48009b5a-04f6-4c35-ad52-a585c4935d57)
  )
  (wire (pts (xy 166.37 80.01) (xy 181.61 80.01))
    (stroke (width 0) (type default))
    (uuid 66621c8b-ab15-4062-9030-f4f41de6a2c5)
  )
  (wire (pts (xy 166.37 82.55) (xy 181.61 82.55))
    (stroke (width 0) (type default))
    (uuid 88f29b17-2081-4c67-92d3-cfd23c233543)
  )
  (wire (pts (xy 114.3 77.47) (xy 119.38 77.47))
    (stroke (width 0) (type default))
    (uuid 8b3bec35-da34-422f-b361-15d436e670b0)
  )
  (wire (pts (xy 190.5 68.58) (xy 190.5 72.39))
    (stroke (width 0) (type default))
    (uuid a19b12dd-4053-4ccd-a079-6e42bc3070ba)
  )
  (wire (pts (xy 182.88 63.5) (xy 190.5 63.5))
    (stroke (width 0) (type default))
    (uuid a4dfbed9-ad35-4078-a4ce-aba47391ac9b)
  )
  (wire (pts (xy 177.8 72.39) (xy 182.88 72.39))
    (stroke (width 0) (type default))
    (uuid b1e9c595-1979-4423-b450-39a58f924e16)
  )
  (wire (pts (xy 166.37 92.71) (xy 166.37 95.25))
    (stroke (width 0) (type default))
    (uuid b8973bdb-55ef-4a9c-acc6-019d8cc09438)
  )
  (wire (pts (xy 104.14 85.09) (xy 109.22 85.09))
    (stroke (width 0) (type default))
    (uuid be777e7f-1432-4530-be1e-24c5a47f30ea)
  )
  (wire (pts (xy 177.8 63.5) (xy 182.88 63.5))
    (stroke (width 0) (type default))
    (uuid c0f8251e-7342-4ac3-845f-dca06d633048)
  )
  (wire (pts (xy 124.46 82.55) (xy 130.81 82.55))
    (stroke (width 0) (type default))
    (uuid c73bf416-5211-490f-b32f-4395de35e9da)
  )
  (wire (pts (xy 166.37 95.25) (xy 172.72 95.25))
    (stroke (width 0) (type default))
    (uuid d1eb8edc-de18-49e8-8ee3-d22e03af02c3)
  )
  (wire (pts (xy 132.08 71.12) (xy 130.81 71.12))
    (stroke (width 0) (type default))
    (uuid e3f172de-099c-4e83-99c7-84378a1613d4)
  )
  (wire (pts (xy 182.88 58.42) (xy 182.88 63.5))
    (stroke (width 0) (type default))
    (uuid ed3d4949-8794-40e2-ba76-75239a33151a)
  )
  (wire (pts (xy 190.5 72.39) (xy 182.88 72.39))
    (stroke (width 0) (type default))
    (uuid f5bc7dca-9b79-4e85-a769-f72c61c57651)
  )

  (global_label "SENSOR_3V3" (shape input) (at 182.88 58.42 0) (fields_autoplaced)
    (effects (font (size 1.27 1.27)) (justify left))
    (uuid 0423f22e-0ae7-499d-88d7-2ea6a2e413ee)
    (property "Intersheetrefs" "${INTERSHEET_REFS}" (at 197.76 58.42 0)
      (effects (font (size 1.27 1.27)) (justify left) hide)
    )
  )
  (global_label "SENSOR_3V3" (shape input) (at 132.08 62.23 0) (fields_autoplaced)
    (effects (font (size 1.27 1.27)) (justify left))
    (uuid 7632053b-c192-4f87-a03b-f094acc3bc62)
    (property "Intersheetrefs" "${INTERSHEET_REFS}" (at 146.96 62.23 0)
      (effects (font (size 1.27 1.27)) (justify left) hide)
    )
  )
  (global_label "DAC1_OUT" (shape input) (at 104.14 85.09 180) (fields_autoplaced)
    (effects (font (size 1.27 1.27)) (justify right))
    (uuid 9088e34a-8c45-4a80-bd1c-b8704d451486)
    (property "Intersheetrefs" "${INTERSHEET_REFS}" (at 91.7999 85.09 0)
      (effects (font (size 1.27 1.27)) (justify right) hide)
    )
  )

  (symbol (lib_id "New_Library:TPA2005D1DRBR") (at 148.59 85.09 0) (unit 1)
    (in_bom yes) (on_board yes) (dnp no) (fields_autoplaced)
    (uuid 0f2ea235-d5d0-4ebf-b5db-0f23eb63adc1)
    (property "Reference" "U5" (at 148.59 68.58 0)
      (effects (font (size 1.27 1.27)))
    )
    (property "Value" "TPA2005D1DRBR" (at 148.59 71.12 0)
      (effects (font (size 1.27 1.27)))
    )
    (property "Footprint" "local_Library:IC_DRV8601DRBT" (at 148.59 85.09 0)
      (effects (font (size 1.27 1.27)) (justify bottom) hide)
    )
    (property "Datasheet" "" (at 148.59 85.09 0)
      (effects (font (size 1.27 1.27)) hide)
    )
    (pin "1" (uuid 4c7beac1-103f-43e7-8b1f-a60e62960644))
    (pin "3" (uuid 9c284b08-a9a7-4ef3-a182-3916031abbab))
    (pin "4" (uuid aa60cae5-c3b8-4e11-a0f4-3d37f4eb68eb))
    (pin "5" (uuid 60ec1c4a-367c-4f52-a70c-a26e24da325d))
    (pin "6" (uuid cfe5dce2-1095-4b49-896c-20f611774769))
    (pin "7" (uuid 001b8578-17fa-480c-867b-f6b978fa4981))
    (pin "8" (uuid 99b8c3fc-4c47-4672-afcc-77a0c79765ba))
    (pin "9" (uuid 1609b48f-0887-44e5-b238-87516ca5f4e1))
    (pin "9_1" (uuid 3e1b69a0-4797-4da5-bca3-01a052188f12))
    (pin "9_2" (uuid 40ce95ce-41f7-4919-9a91-2726175f19ff))
    (pin "9_3" (uuid ee5214ba-9e91-4354-ba52-c7d4b23936e4))
    (pin "9_4" (uuid aa7dff4c-0bdf-4367-a256-e97fb7de629d))
    (pin "V1" (uuid 5d91a6df-c6de-4d1f-be47-10f1cd31bef6))
    (pin "V2" (uuid a0abc06c-e11a-4ee6-b38e-93fd464ee54a))
    (pin "V3" (uuid 2ca681c6-7f35-4333-9b81-9d7032c053a5))
    (pin "V4" (uuid 03fa5de2-80b5-45ca-ba98-68a3f2230e24))
    (instances
      (project "wally_bee"
        (path "/208d521e-11bf-46c8-b547-4413b3b47868/8d0e3e65-9bf5-4d9a-8d01-64fa5af8ede2"
          (reference "U5") (unit 1)
        )
      )
      (project "honey_cell_0603"
        (path "/f649b29b-4f04-437c-ad34-5dad5a788578/4b35065c-6952-46ea-9eb6-f2420bd4c108"
          (reference "U2") (unit 1)
        )
        (path "/f649b29b-4f04-437c-ad34-5dad5a788578/9562cd93-6957-42be-8860-5b3e7b7b8d02"
          (reference "U2") (unit 1)
        )
      )
    )
  )

  (symbol (lib_id "Device:Speaker") (at 186.69 80.01 0) (unit 1)
    (in_bom yes) (on_board yes) (dnp no) (fields_autoplaced)
    (uuid 10f9940c-a59d-44f1-ba30-d04b5151a4d4)
    (property "Reference" "LS1" (at 191.77 80.645 0)
      (effects (font (size 1.27 1.27)) (justify left))
    )
    (property "Value" "Speaker" (at 191.77 83.185 0)
      (effects (font (size 1.27 1.27)) (justify left))
    )
    (property "Footprint" "Connector_PinHeader_2.54mm:PinHeader_1x02_P2.54mm_Vertical" (at 186.69 85.09 0)
      (effects (font (size 1.27 1.27)) hide)
    )
    (property "Datasheet" "~" (at 186.436 81.28 0)
      (effects (font (size 1.27 1.27)) hide)
    )
    (pin "1" (uuid c5909dfb-c869-48d4-8210-2ebd226c3dbd))
    (pin "2" (uuid 82af29c0-93ec-46a1-8334-ed1ca384982d))
    (instances
      (project "wally_bee"
        (path "/208d521e-11bf-46c8-b547-4413b3b47868/8d0e3e65-9bf5-4d9a-8d01-64fa5af8ede2"
          (reference "LS1") (unit 1)
        )
      )
      (project "honey_cell_0603"
        (path "/f649b29b-4f04-437c-ad34-5dad5a788578/4b35065c-6952-46ea-9eb6-f2420bd4c108"
          (reference "LS1") (unit 1)
        )
        (path "/f649b29b-4f04-437c-ad34-5dad5a788578/9562cd93-6957-42be-8860-5b3e7b7b8d02"
          (reference "LS1") (unit 1)
        )
      )
    )
  )

  (symbol (lib_id "Device:C_Small") (at 111.76 77.47 90) (unit 1)
    (in_bom yes) (on_board yes) (dnp no)
    (uuid 25034d86-a614-40d4-bf0b-2959fee1ae9c)
    (property "Reference" "C13" (at 110.4962 74.93 0)
      (effects (font (size 1.27 1.27)) (justify left))
    )
    (property "Value" "0.1uF 0603" (at 114.3 74.93 0)
      (effects (font (size 1.27 1.27)) (justify left))
    )
    (property "Footprint" "Capacitor_SMD:C_0603_1608Metric" (at 111.76 77.47 0)
      (effects (font (size 1.27 1.27)) hide)
    )
    (property "Datasheet" "~" (at 111.76 77.47 0)
      (effects (font (size 1.27 1.27)) hide)
    )
    (pin "1" (uuid c96c39a8-acb8-4dc9-92a1-7f77ae21d400))
    (pin "2" (uuid aff57f3d-4309-4c3a-b88c-a84fef7aea4f))
    (instances
      (project "wally_bee"
        (path "/208d521e-11bf-46c8-b547-4413b3b47868/8d0e3e65-9bf5-4d9a-8d01-64fa5af8ede2"
          (reference "C13") (unit 1)
        )
      )
      (project "honey_cell_0603"
        (path "/f649b29b-4f04-437c-ad34-5dad5a788578/4b35065c-6952-46ea-9eb6-f2420bd4c108"
          (reference "C7") (unit 1)
        )
        (path "/f649b29b-4f04-437c-ad34-5dad5a788578/9562cd93-6957-42be-8860-5b3e7b7b8d02"
          (reference "C5") (unit 1)
        )
      )
    )
  )

  (symbol (lib_id "Device:R_Small") (at 121.92 77.47 90) (unit 1)
    (in_bom yes) (on_board yes) (dnp no) (fields_autoplaced)
    (uuid 64e43bcd-6a4a-4721-a70f-07b77cf23200)
    (property "Reference" "R23" (at 121.0853 75.9714 0)
      (effects (font (size 1.27 1.27)) (justify left))
    )
    (property "Value" "150K 0603" (at 123.6222 75.9714 0)
      (effects (font (size 1.27 1.27)) (justify left))
    )
    (property "Footprint" "Resistor_SMD:R_0603_1608Metric" (at 121.92 77.47 0)
      (effects (font (size 1.27 1.27)) hide)
    )
    (property "Datasheet" "~" (at 121.92 77.47 0)
      (effects (font (size 1.27 1.27)) hide)
    )
    (pin "1" (uuid 7f092c41-6c5e-489d-ae1b-94390178d63b))
    (pin "2" (uuid 0b963d96-e35e-4e3a-b122-0e077e7b4008))
    (instances
      (project "wally_bee"
        (path "/208d521e-11bf-46c8-b547-4413b3b47868/8d0e3e65-9bf5-4d9a-8d01-64fa5af8ede2"
          (reference "R23") (unit 1)
        )
      )
      (project "honey_cell_0603"
        (path "/f649b29b-4f04-437c-ad34-5dad5a788578/4b35065c-6952-46ea-9eb6-f2420bd4c108"
          (reference "R17") (unit 1)
        )
        (path "/f649b29b-4f04-437c-ad34-5dad5a788578/9562cd93-6957-42be-8860-5b3e7b7b8d02"
          (reference "R13") (unit 1)
        )
      )
    )
  )

  (symbol (lib_id "Device:C_Small") (at 190.5 66.04 0) (unit 1)
    (in_bom yes) (on_board yes) (dnp no)
    (uuid 9067620c-5eb7-4923-977f-61b8288f98e0)
    (property "Reference" "C16" (at 193.04 64.7762 0)
      (effects (font (size 1.27 1.27)) (justify left))
    )
    (property "Value" "10uF 0805" (at 181.61 69.85 0)
      (effects (font (size 1.27 1.27)) (justify left))
    )
    (property "Footprint" "Capacitor_SMD:C_0805_2012Metric" (at 190.5 66.04 0)
      (effects (font (size 1.27 1.27)) hide)
    )
    (property "Datasheet" "~" (at 190.5 66.04 0)
      (effects (font (size 1.27 1.27)) hide)
    )
    (pin "1" (uuid d22b4bd9-e91a-45af-93fe-6bdcf852caf6))
    (pin "2" (uuid e3f6b680-73c3-4a81-adbe-98eddc42b68f))
    (instances
      (project "wally_bee"
        (path "/208d521e-11bf-46c8-b547-4413b3b47868/8d0e3e65-9bf5-4d9a-8d01-64fa5af8ede2"
          (reference "C16") (unit 1)
        )
      )
      (project "honey_cell_0603"
        (path "/f649b29b-4f04-437c-ad34-5dad5a788578/3b667da2-f46c-4324-9608-df4e0e09354d"
          (reference "C1") (unit 1)
        )
        (path "/f649b29b-4f04-437c-ad34-5dad5a788578/4b35065c-6952-46ea-9eb6-f2420bd4c108"
          (reference "C13") (unit 1)
        )
        (path "/f649b29b-4f04-437c-ad34-5dad5a788578/9562cd93-6957-42be-8860-5b3e7b7b8d02"
          (reference "C13") (unit 1)
        )
      )
    )
  )

  (symbol (lib_id "power:GND") (at 101.6 77.47 0) (unit 1)
    (in_bom yes) (on_board yes) (dnp no) (fields_autoplaced)
    (uuid 9b35c2b2-1dc9-4669-a2d0-6666a90ebe08)
    (property "Reference" "#PWR019" (at 101.6 83.82 0)
      (effects (font (size 1.27 1.27)) hide)
    )
    (property "Value" "GND" (at 101.6 81.9134 0)
      (effects (font (size 1.27 1.27)))
    )
    (property "Footprint" "" (at 101.6 77.47 0)
      (effects (font (size 1.27 1.27)) hide)
    )
    (property "Datasheet" "" (at 101.6 77.47 0)
      (effects (font (size 1.27 1.27)) hide)
    )
    (pin "1" (uuid ffe9662d-faeb-468a-976b-ab34a92d655f))
    (instances
      (project "wally_bee"
        (path "/208d521e-11bf-46c8-b547-4413b3b47868/8d0e3e65-9bf5-4d9a-8d01-64fa5af8ede2"
          (reference "#PWR019") (unit 1)
        )
      )
      (project "honey_cell_0603"
        (path "/f649b29b-4f04-437c-ad34-5dad5a788578/4b35065c-6952-46ea-9eb6-f2420bd4c108"
          (reference "#PWR014") (unit 1)
        )
        (path "/f649b29b-4f04-437c-ad34-5dad5a788578/9562cd93-6957-42be-8860-5b3e7b7b8d02"
          (reference "#PWR013") (unit 1)
        )
      )
    )
  )

  (symbol (lib_id "power:GND") (at 172.72 99.06 0) (unit 1)
    (in_bom yes) (on_board yes) (dnp no) (fields_autoplaced)
    (uuid b917f931-bd0f-4260-8eb0-63c2f2328f9e)
    (property "Reference" "#PWR032" (at 172.72 105.41 0)
      (effects (font (size 1.27 1.27)) hide)
    )
    (property "Value" "GND" (at 172.72 103.5034 0)
      (effects (font (size 1.27 1.27)))
    )
    (property "Footprint" "" (at 172.72 99.06 0)
      (effects (font (size 1.27 1.27)) hide)
    )
    (property "Datasheet" "" (at 172.72 99.06 0)
      (effects (font (size 1.27 1.27)) hide)
    )
    (pin "1" (uuid 0ea3ddd4-ca02-4af4-bf1a-76fa4c4654fb))
    (instances
      (project "wally_bee"
        (path "/208d521e-11bf-46c8-b547-4413b3b47868/8d0e3e65-9bf5-4d9a-8d01-64fa5af8ede2"
          (reference "#PWR032") (unit 1)
        )
      )
      (project "honey_cell_0603"
        (path "/f649b29b-4f04-437c-ad34-5dad5a788578/4b35065c-6952-46ea-9eb6-f2420bd4c108"
          (reference "#PWR013") (unit 1)
        )
        (path "/f649b29b-4f04-437c-ad34-5dad5a788578/9562cd93-6957-42be-8860-5b3e7b7b8d02"
          (reference "#PWR014") (unit 1)
        )
      )
    )
  )

  (symbol (lib_id "Device:C_Small") (at 111.76 85.09 270) (unit 1)
    (in_bom yes) (on_board yes) (dnp no)
    (uuid c75036b5-3611-4457-93fc-c2a0ff8b218d)
    (property "Reference" "C14" (at 113.0238 87.63 0)
      (effects (font (size 1.27 1.27)) (justify left))
    )
    (property "Value" "0.1uF 0603" (at 109.22 87.63 0)
      (effects (font (size 1.27 1.27)) (justify left))
    )
    (property "Footprint" "Capacitor_SMD:C_0603_1608Metric" (at 111.76 85.09 0)
      (effects (font (size 1.27 1.27)) hide)
    )
    (property "Datasheet" "~" (at 111.76 85.09 0)
      (effects (font (size 1.27 1.27)) hide)
    )
    (pin "1" (uuid e4614dbd-3508-4522-8127-a7b1ced246bd))
    (pin "2" (uuid 0601accc-802e-4168-a073-adf8920a6906))
    (instances
      (project "wally_bee"
        (path "/208d521e-11bf-46c8-b547-4413b3b47868/8d0e3e65-9bf5-4d9a-8d01-64fa5af8ede2"
          (reference "C14") (unit 1)
        )
      )
      (project "honey_cell_0603"
        (path "/f649b29b-4f04-437c-ad34-5dad5a788578/4b35065c-6952-46ea-9eb6-f2420bd4c108"
          (reference "C5") (unit 1)
        )
        (path "/f649b29b-4f04-437c-ad34-5dad5a788578/9562cd93-6957-42be-8860-5b3e7b7b8d02"
          (reference "C7") (unit 1)
        )
      )
    )
  )

  (symbol (lib_id "Device:R_Small") (at 132.08 67.31 0) (unit 1)
    (in_bom yes) (on_board yes) (dnp no) (fields_autoplaced)
    (uuid e5a5661d-0770-439e-9c3c-fc59752d4797)
    (property "Reference" "R25" (at 133.5786 66.4753 0)
      (effects (font (size 1.27 1.27)) (justify left))
    )
    (property "Value" "4.7K 0603" (at 133.5786 69.0122 0)
      (effects (font (size 1.27 1.27)) (justify left))
    )
    (property "Footprint" "Resistor_SMD:R_0603_1608Metric" (at 132.08 67.31 0)
      (effects (font (size 1.27 1.27)) hide)
    )
    (property "Datasheet" "~" (at 132.08 67.31 0)
      (effects (font (size 1.27 1.27)) hide)
    )
    (pin "1" (uuid fa7a1ce5-b9cc-4e2f-a80f-0f9fb5daae62))
    (pin "2" (uuid ac89c898-4336-41a5-80f5-f6876ee739ce))
    (instances
      (project "wally_bee"
        (path "/208d521e-11bf-46c8-b547-4413b3b47868/8d0e3e65-9bf5-4d9a-8d01-64fa5af8ede2"
          (reference "R25") (unit 1)
        )
      )
      (project "honey_cell_0603"
        (path "/f649b29b-4f04-437c-ad34-5dad5a788578/4b35065c-6952-46ea-9eb6-f2420bd4c108"
          (reference "R13") (unit 1)
        )
        (path "/f649b29b-4f04-437c-ad34-5dad5a788578/9562cd93-6957-42be-8860-5b3e7b7b8d02"
          (reference "R17") (unit 1)
        )
      )
    )
  )

  (symbol (lib_id "Device:R_Small") (at 121.92 85.09 270) (unit 1)
    (in_bom yes) (on_board yes) (dnp no) (fields_autoplaced)
    (uuid f3470c0f-683e-480d-91e3-76c162bddd83)
    (property "Reference" "R24" (at 122.7547 86.5886 0)
      (effects (font (size 1.27 1.27)) (justify left))
    )
    (property "Value" "150K 0603" (at 120.2178 86.5886 0)
      (effects (font (size 1.27 1.27)) (justify left))
    )
    (property "Footprint" "Resistor_SMD:R_0603_1608Metric" (at 121.92 85.09 0)
      (effects (font (size 1.27 1.27)) hide)
    )
    (property "Datasheet" "~" (at 121.92 85.09 0)
      (effects (font (size 1.27 1.27)) hide)
    )
    (pin "1" (uuid 03de040c-dc1b-498e-b418-f7d6e9365058))
    (pin "2" (uuid 17ceb0af-ee49-4d24-a445-0cad0e157f5b))
    (instances
      (project "wally_bee"
        (path "/208d521e-11bf-46c8-b547-4413b3b47868/8d0e3e65-9bf5-4d9a-8d01-64fa5af8ede2"
          (reference "R24") (unit 1)
        )
      )
      (project "honey_cell_0603"
        (path "/f649b29b-4f04-437c-ad34-5dad5a788578/4b35065c-6952-46ea-9eb6-f2420bd4c108"
          (reference "R16") (unit 1)
        )
        (path "/f649b29b-4f04-437c-ad34-5dad5a788578/9562cd93-6957-42be-8860-5b3e7b7b8d02"
          (reference "R16") (unit 1)
        )
      )
    )
  )

  (symbol (lib_id "Device:C_Small") (at 177.8 66.04 0) (unit 1)
    (in_bom yes) (on_board yes) (dnp no)
    (uuid f790c43f-88f1-4d9e-8722-62a99711e3e2)
    (property "Reference" "C15" (at 180.34 64.7762 0)
      (effects (font (size 1.27 1.27)) (justify left))
    )
    (property "Value" "1uF 0805" (at 168.91 69.85 0)
      (effects (font (size 1.27 1.27)) (justify left))
    )
    (property "Footprint" "Capacitor_SMD:C_0805_2012Metric" (at 177.8 66.04 0)
      (effects (font (size 1.27 1.27)) hide)
    )
    (property "Datasheet" "~" (at 177.8 66.04 0)
      (effects (font (size 1.27 1.27)) hide)
    )
    (pin "1" (uuid 8cee0265-6e0f-4cb8-828a-8eedbbd4aa7a))
    (pin "2" (uuid c7a0c5bd-0924-4c33-b7c0-9b85644e1c26))
    (instances
      (project "wally_bee"
        (path "/208d521e-11bf-46c8-b547-4413b3b47868/8d0e3e65-9bf5-4d9a-8d01-64fa5af8ede2"
          (reference "C15") (unit 1)
        )
      )
      (project "honey_cell_0603"
        (path "/f649b29b-4f04-437c-ad34-5dad5a788578/3b667da2-f46c-4324-9608-df4e0e09354d"
          (reference "C1") (unit 1)
        )
        (path "/f649b29b-4f04-437c-ad34-5dad5a788578/4b35065c-6952-46ea-9eb6-f2420bd4c108"
          (reference "C10") (unit 1)
        )
        (path "/f649b29b-4f04-437c-ad34-5dad5a788578/9562cd93-6957-42be-8860-5b3e7b7b8d02"
          (reference "C10") (unit 1)
        )
      )
    )
  )

  (symbol (lib_id "power:GND") (at 182.88 72.39 0) (unit 1)
    (in_bom yes) (on_board yes) (dnp no) (fields_autoplaced)
    (uuid f7c26557-5ee6-4d00-90e9-9a81896110b7)
    (property "Reference" "#PWR033" (at 182.88 78.74 0)
      (effects (font (size 1.27 1.27)) hide)
    )
    (property "Value" "GND" (at 182.88 76.8334 0)
      (effects (font (size 1.27 1.27)))
    )
    (property "Footprint" "" (at 182.88 72.39 0)
      (effects (font (size 1.27 1.27)) hide)
    )
    (property "Datasheet" "" (at 182.88 72.39 0)
      (effects (font (size 1.27 1.27)) hide)
    )
    (pin "1" (uuid 2c99f156-4376-4abe-ae74-b0cd8f4f7a29))
    (instances
      (project "wally_bee"
        (path "/208d521e-11bf-46c8-b547-4413b3b47868/8d0e3e65-9bf5-4d9a-8d01-64fa5af8ede2"
          (reference "#PWR033") (unit 1)
        )
      )
      (project "honey_cell_0603"
        (path "/f649b29b-4f04-437c-ad34-5dad5a788578/4b35065c-6952-46ea-9eb6-f2420bd4c108"
          (reference "#PWR015") (unit 1)
        )
        (path "/f649b29b-4f04-437c-ad34-5dad5a788578/9562cd93-6957-42be-8860-5b3e7b7b8d02"
          (reference "#PWR015") (unit 1)
        )
      )
    )
  )
)
