(kicad_sch (version 20230121) (generator eeschema)

  (uuid 208d521e-11bf-46c8-b547-4413b3b47868)

  (paper "A4")

  (lib_symbols
  )


  (sheet (at 175.26 85.09) (size 43.18 16.51) (fields_autoplaced)
    (stroke (width 0.1524) (type solid))
    (fill (color 0 0 0 0.0000))
    (uuid 06ed8fdc-2a60-4ce2-8603-e2f664805afc)
    (property "Sheetname" "5V_Boost" (at 175.26 84.3784 0)
      (effects (font (size 1.27 1.27)) (justify left bottom))
    )
    (property "Sheetfile" "5v_boost.kicad_sch" (at 175.26 102.1846 0)
      (effects (font (size 1.27 1.27)) (justify left top))
    )
    (instances
      (project "wally_bee"
        (path "/208d521e-11bf-46c8-b547-4413b3b47868" (page "13"))
      )
    )
  )

  (sheet (at 85.09 110.49) (size 31.75 19.05) (fields_autoplaced)
    (stroke (width 0.1524) (type solid))
    (fill (color 0 0 0 0.0000))
    (uuid 486614b6-52f4-4ae7-b9a2-47a9a9840245)
    (property "Sheetname" "charging" (at 85.09 109.7784 0)
      (effects (font (size 1.27 1.27)) (justify left bottom))
    )
    (property "Sheetfile" "charging.kicad_sch" (at 85.09 130.1246 0)
      (effects (font (size 1.27 1.27)) (justify left top))
    )
    (instances
      (project "wally_bee"
        (path "/208d521e-11bf-46c8-b547-4413b3b47868" (page "18"))
      )
    )
  )

  (sheet (at 26.67 77.47) (size 25.4 12.7) (fields_autoplaced)
    (stroke (width 0.1524) (type solid))
    (fill (color 0 0 0 0.0000))
    (uuid 4e7a8d82-14cc-40c0-88b4-bc0118fea741)
    (property "Sheetname" "OctoSPI" (at 26.67 76.7584 0)
      (effects (font (size 1.27 1.27)) (justify left bottom))
    )
    (property "Sheetfile" "octospi.kicad_sch" (at 26.67 90.7546 0)
      (effects (font (size 1.27 1.27)) (justify left top))
    )
    (instances
      (project "wally_bee"
        (path "/208d521e-11bf-46c8-b547-4413b3b47868" (page "7"))
      )
    )
  )

  (sheet (at 236.22 59.69) (size 30.48 21.59) (fields_autoplaced)
    (stroke (width 0.1524) (type solid))
    (fill (color 0 0 0 0.0000))
    (uuid 4ed30849-c27b-4430-bf14-224bd1e54abf)
    (property "Sheetname" "Accelometr" (at 236.22 58.9784 0)
      (effects (font (size 1.27 1.27)) (justify left bottom))
    )
    (property "Sheetfile" "accelometr.kicad_sch" (at 236.22 81.8646 0)
      (effects (font (size 1.27 1.27)) (justify left top))
    )
    (instances
      (project "wally_bee"
        (path "/208d521e-11bf-46c8-b547-4413b3b47868" (page "15"))
      )
    )
  )

  (sheet (at 30.48 25.4) (size 21.59 12.7) (fields_autoplaced)
    (stroke (width 0.1524) (type solid))
    (fill (color 0 0 0 0.0000))
    (uuid 664a1978-e469-4735-8c19-dc7dd930046d)
    (property "Sheetname" "power" (at 30.48 24.6884 0)
      (effects (font (size 1.27 1.27)) (justify left bottom))
    )
    (property "Sheetfile" "power.kicad_sch" (at 30.48 38.6846 0)
      (effects (font (size 1.27 1.27)) (justify left top))
    )
    (instances
      (project "wally_bee"
        (path "/208d521e-11bf-46c8-b547-4413b3b47868" (page "2"))
      )
    )
  )

  (sheet (at 33.02 53.34) (size 25.4 12.7) (fields_autoplaced)
    (stroke (width 0.1524) (type solid))
    (fill (color 0 0 0 0.0000))
    (uuid 66fb427b-0e43-4a06-8079-d6fd7876413c)
    (property "Sheetname" "buttons" (at 33.02 52.6284 0)
      (effects (font (size 1.27 1.27)) (justify left bottom))
    )
    (property "Sheetfile" "buttons.kicad_sch" (at 33.02 66.6246 0)
      (effects (font (size 1.27 1.27)) (justify left top))
    )
    (instances
      (project "wally_bee"
        (path "/208d521e-11bf-46c8-b547-4413b3b47868" (page "4"))
      )
    )
  )

  (sheet (at 113.03 78.74) (size 27.94 13.97) (fields_autoplaced)
    (stroke (width 0.1524) (type solid))
    (fill (color 0 0 0 0.0000))
    (uuid 73db047b-031d-4687-817e-b318e515c533)
    (property "Sheetname" "microphone" (at 113.03 78.0284 0)
      (effects (font (size 1.27 1.27)) (justify left bottom))
    )
    (property "Sheetfile" "microphone.kicad_sch" (at 113.03 93.2946 0)
      (effects (font (size 1.27 1.27)) (justify left top))
    )
    (instances
      (project "wally_bee"
        (path "/208d521e-11bf-46c8-b547-4413b3b47868" (page "9"))
      )
    )
  )

  (sheet (at 128.27 26.67) (size 30.48 16.51) (fields_autoplaced)
    (stroke (width 0.1524) (type solid))
    (fill (color 0 0 0 0.0000))
    (uuid 8d0e3e65-9bf5-4d9a-8d01-64fa5af8ede2)
    (property "Sheetname" "Speaker" (at 128.27 25.9584 0)
      (effects (font (size 1.27 1.27)) (justify left bottom))
    )
    (property "Sheetfile" "speaker.kicad_sch" (at 128.27 43.7646 0)
      (effects (font (size 1.27 1.27)) (justify left top))
    )
    (instances
      (project "wally_bee"
        (path "/208d521e-11bf-46c8-b547-4413b3b47868" (page "10"))
      )
    )
  )

  (sheet (at 176.53 27.94) (size 41.91 17.78) (fields_autoplaced)
    (stroke (width 0.1524) (type solid))
    (fill (color 0 0 0 0.0000))
    (uuid 8d853ff9-ecfe-4d1d-bf90-bd4e1540fba1)
    (property "Sheetname" "Locks" (at 176.53 27.2284 0)
      (effects (font (size 1.27 1.27)) (justify left bottom))
    )
    (property "Sheetfile" "locks.kicad_sch" (at 176.53 46.3046 0)
      (effects (font (size 1.27 1.27)) (justify left top))
    )
    (instances
      (project "wally_bee"
        (path "/208d521e-11bf-46c8-b547-4413b3b47868" (page "11"))
      )
    )
  )

  (sheet (at 82.55 25.4) (size 24.13 15.24) (fields_autoplaced)
    (stroke (width 0.1524) (type solid))
    (fill (color 0 0 0 0.0000))
    (uuid 8eb2c61a-dc7a-4984-82d3-10f731f34b90)
    (property "Sheetname" "stm32u5" (at 82.55 24.6884 0)
      (effects (font (size 1.27 1.27)) (justify left bottom))
    )
    (property "Sheetfile" "stm32u5.kicad_sch" (at 82.55 41.2246 0)
      (effects (font (size 1.27 1.27)) (justify left top))
    )
    (instances
      (project "wally_bee"
        (path "/208d521e-11bf-46c8-b547-4413b3b47868" (page "3"))
      )
    )
  )

  (sheet (at 123.19 54.61) (size 25.4 13.97) (fields_autoplaced)
    (stroke (width 0.1524) (type solid))
    (fill (color 0 0 0 0.0000))
    (uuid af839ae2-7bd9-4a06-9ce7-92a85976d817)
    (property "Sheetname" "uSD" (at 123.19 53.8984 0)
      (effects (font (size 1.27 1.27)) (justify left bottom))
    )
    (property "Sheetfile" "usd.kicad_sch" (at 123.19 69.1646 0)
      (effects (font (size 1.27 1.27)) (justify left top))
    )
    (instances
      (project "wally_bee"
        (path "/208d521e-11bf-46c8-b547-4413b3b47868" (page "6"))
      )
    )
  )

  (sheet (at 234.95 88.9) (size 30.48 16.51) (fields_autoplaced)
    (stroke (width 0.1524) (type solid))
    (fill (color 0 0 0 0.0000))
    (uuid cb625238-a799-4f06-b6a7-cfb3f172e2a7)
    (property "Sheetname" "USB_OTG" (at 234.95 88.1884 0)
      (effects (font (size 1.27 1.27)) (justify left bottom))
    )
    (property "Sheetfile" "usb_otg.kicad_sch" (at 234.95 105.9946 0)
      (effects (font (size 1.27 1.27)) (justify left top))
    )
    (instances
      (project "wally_bee"
        (path "/208d521e-11bf-46c8-b547-4413b3b47868" (page "16"))
      )
    )
  )

  (sheet (at 66.04 78.74) (size 26.67 12.7) (fields_autoplaced)
    (stroke (width 0.1524) (type solid))
    (fill (color 0 0 0 0.0000))
    (uuid d00c0ef4-c982-46c0-9e10-100328397f83)
    (property "Sheetname" "SPI_flash" (at 66.04 78.0284 0)
      (effects (font (size 1.27 1.27)) (justify left bottom))
    )
    (property "Sheetfile" "spi_flash.kicad_sch" (at 66.04 92.0246 0)
      (effects (font (size 1.27 1.27)) (justify left top))
    )
    (instances
      (project "wally_bee"
        (path "/208d521e-11bf-46c8-b547-4413b3b47868" (page "8"))
      )
    )
  )

  (sheet (at 177.8 58.42) (size 43.18 19.05) (fields_autoplaced)
    (stroke (width 0.1524) (type solid))
    (fill (color 0 0 0 0.0000))
    (uuid e5814090-37e0-4e35-88f1-c57ee335d85e)
    (property "Sheetname" "Lora" (at 177.8 57.7084 0)
      (effects (font (size 1.27 1.27)) (justify left bottom))
    )
    (property "Sheetfile" "lora.kicad_sch" (at 177.8 78.0546 0)
      (effects (font (size 1.27 1.27)) (justify left top))
    )
    (instances
      (project "wally_bee"
        (path "/208d521e-11bf-46c8-b547-4413b3b47868" (page "12"))
      )
    )
  )

  (sheet (at 71.12 54.61) (size 27.94 12.7) (fields_autoplaced)
    (stroke (width 0.1524) (type solid))
    (fill (color 0 0 0 0.0000))
    (uuid f035d8e5-1b8f-41d9-80fd-e03c511581cc)
    (property "Sheetname" "leds" (at 71.12 53.8984 0)
      (effects (font (size 1.27 1.27)) (justify left bottom))
    )
    (property "Sheetfile" "leds.kicad_sch" (at 71.12 67.8946 0)
      (effects (font (size 1.27 1.27)) (justify left top))
    )
    (instances
      (project "wally_bee"
        (path "/208d521e-11bf-46c8-b547-4413b3b47868" (page "5"))
      )
    )
  )

  (sheet (at 241.3 27.94) (size 29.21 16.51) (fields_autoplaced)
    (stroke (width 0.1524) (type solid))
    (fill (color 0 0 0 0.0000))
    (uuid f5f95d38-289b-4465-a963-5005e70d6c38)
    (property "Sheetname" "Temp_Humidity" (at 241.3 27.2284 0)
      (effects (font (size 1.27 1.27)) (justify left bottom))
    )
    (property "Sheetfile" "temp_humid.kicad_sch" (at 241.3 45.0346 0)
      (effects (font (size 1.27 1.27)) (justify left top))
    )
    (instances
      (project "wally_bee"
        (path "/208d521e-11bf-46c8-b547-4413b3b47868" (page "14"))
      )
    )
  )

  (sheet_instances
    (path "/" (page "1"))
  )
)
