%TF.GenerationSoftware,KiCad,Pcbnew,(7.0.0)*%
%TF.CreationDate,2024-07-03T17:16:06+03:00*%
%TF.ProjectId,wally_bee,77616c6c-795f-4626-9565-2e6b69636164,rev?*%
%TF.SameCoordinates,Original*%
%TF.FileFunction,Soldermask,Bot*%
%TF.FilePolarity,Negative*%
%FSLAX46Y46*%
G04 Gerber Fmt 4.6, Leading zero omitted, Abs format (unit mm)*
G04 Created by KiCad (PCBNEW (7.0.0)) date 2024-07-03 17:16:06*
%MOMM*%
%LPD*%
G01*
G04 APERTURE LIST*
G04 Aperture macros list*
%AMRoundRect*
0 Rectangle with rounded corners*
0 $1 Rounding radius*
0 $2 $3 $4 $5 $6 $7 $8 $9 X,Y pos of 4 corners*
0 Add a 4 corners polygon primitive as box body*
4,1,4,$2,$3,$4,$5,$6,$7,$8,$9,$2,$3,0*
0 Add four circle primitives for the rounded corners*
1,1,$1+$1,$2,$3*
1,1,$1+$1,$4,$5*
1,1,$1+$1,$6,$7*
1,1,$1+$1,$8,$9*
0 Add four rect primitives between the rounded corners*
20,1,$1+$1,$2,$3,$4,$5,0*
20,1,$1+$1,$4,$5,$6,$7,0*
20,1,$1+$1,$6,$7,$8,$9,0*
20,1,$1+$1,$8,$9,$2,$3,0*%
G04 Aperture macros list end*
%ADD10R,0.522000X0.600000*%
%ADD11C,1.625000*%
%ADD12R,1.700000X1.700000*%
%ADD13C,1.700000*%
%ADD14O,1.700000X1.700000*%
%ADD15C,3.500000*%
%ADD16C,0.900000*%
%ADD17RoundRect,0.225000X-0.250000X0.225000X-0.250000X-0.225000X0.250000X-0.225000X0.250000X0.225000X0*%
%ADD18RoundRect,0.200000X0.275000X-0.200000X0.275000X0.200000X-0.275000X0.200000X-0.275000X-0.200000X0*%
%ADD19RoundRect,0.225000X0.225000X0.250000X-0.225000X0.250000X-0.225000X-0.250000X0.225000X-0.250000X0*%
G04 APERTURE END LIST*
D10*
%TO.C,IC5*%
X91425999Y-66859999D03*
X92247999Y-66859999D03*
D11*
X93500000Y-67760000D03*
D10*
X92247999Y-68659999D03*
X91425999Y-68659999D03*
X91425999Y-67759999D03*
%TD*%
D11*
%TO.C,IC4*%
X86640000Y-67850000D03*
%TD*%
D12*
%TO.C,SW6*%
X194339999Y-83659999D03*
D13*
X187840000Y-83660000D03*
X194340000Y-79160000D03*
X187840000Y-79160000D03*
%TD*%
D12*
%TO.C,M4*%
X188019999Y-86709999D03*
D14*
X190559999Y-86709999D03*
X193099999Y-86709999D03*
%TD*%
D12*
%TO.C,M12*%
X29869999Y-89779999D03*
D14*
X32409999Y-89779999D03*
X34949999Y-89779999D03*
%TD*%
D12*
%TO.C,SW5*%
X57214999Y-89309999D03*
D14*
X59754999Y-89309999D03*
%TD*%
D12*
%TO.C,M7*%
X133639999Y-88719999D03*
D14*
X136179999Y-88719999D03*
X138719999Y-88719999D03*
%TD*%
D12*
%TO.C,SW3*%
X125379999Y-84369999D03*
D13*
X125380000Y-77870000D03*
X129880000Y-84370000D03*
X129880000Y-77870000D03*
%TD*%
D12*
%TO.C,SW4*%
X157219999Y-84619999D03*
D13*
X157220000Y-78120000D03*
X161720000Y-84620000D03*
X161720000Y-78120000D03*
%TD*%
D12*
%TO.C,J6*%
X178969999Y-89212499D03*
D13*
X176470000Y-89212500D03*
X176470000Y-91212500D03*
X178970000Y-91212500D03*
D15*
X183740000Y-93922500D03*
X171700000Y-93922500D03*
%TD*%
D16*
%TO.C,S1*%
X160730000Y-102835000D03*
X163730000Y-102835000D03*
%TD*%
D12*
%TO.C,M8*%
X123669999Y-88869999D03*
D14*
X126209999Y-88869999D03*
X128749999Y-88869999D03*
%TD*%
D12*
%TO.C,M6*%
X143379999Y-88559999D03*
D14*
X145919999Y-88559999D03*
X148459999Y-88559999D03*
%TD*%
D12*
%TO.C,M2*%
X153099999Y-88549999D03*
D14*
X155639999Y-88549999D03*
X158179999Y-88549999D03*
%TD*%
D12*
%TO.C,M10*%
X63619999Y-89229999D03*
D14*
X66159999Y-89229999D03*
X68699999Y-89229999D03*
%TD*%
D12*
%TO.C,M9*%
X113139999Y-89109999D03*
D14*
X115679999Y-89109999D03*
X118219999Y-89109999D03*
%TD*%
D12*
%TO.C,J5*%
X211659999Y-87519999D03*
D14*
X209119999Y-87519999D03*
X206579999Y-87519999D03*
X204039999Y-87519999D03*
%TD*%
D12*
%TO.C,M1*%
X103319999Y-89479999D03*
D14*
X105859999Y-89479999D03*
X108399999Y-89479999D03*
%TD*%
D12*
%TO.C,LS1*%
X117514999Y-67399999D03*
D14*
X114974999Y-67399999D03*
%TD*%
D12*
%TO.C,SW1*%
X49844999Y-89539999D03*
D14*
X52384999Y-89539999D03*
%TD*%
D12*
%TO.C,J4*%
X20969999Y-77039999D03*
D14*
X20969999Y-79579999D03*
X20969999Y-82119999D03*
X20969999Y-84659999D03*
X20969999Y-87199999D03*
X20969999Y-89739999D03*
X20969999Y-92279999D03*
%TD*%
D12*
%TO.C,M5*%
X162009999Y-88399999D03*
D14*
X164549999Y-88399999D03*
X167089999Y-88399999D03*
%TD*%
D12*
%TO.C,SW2*%
X206759999Y-84299999D03*
D13*
X206760000Y-77800000D03*
X211260000Y-84300000D03*
X211260000Y-77800000D03*
%TD*%
D12*
%TO.C,SW7*%
X140709999Y-84619999D03*
D13*
X140710000Y-78120000D03*
X145210000Y-84620000D03*
X145210000Y-78120000D03*
%TD*%
D12*
%TO.C,SW6*%
X204109999Y-95599999D03*
D13*
X210610000Y-95600000D03*
X204110000Y-100100000D03*
X210610000Y-100100000D03*
%TD*%
D12*
%TO.C,M13*%
X39799999Y-89619999D03*
D14*
X42339999Y-89619999D03*
X44879999Y-89619999D03*
%TD*%
D12*
%TO.C,J2*%
X24579999Y-76959999D03*
D14*
X24579999Y-79499999D03*
X24579999Y-82039999D03*
X24579999Y-84579999D03*
X24579999Y-87119999D03*
X24579999Y-89659999D03*
X24579999Y-92199999D03*
%TD*%
D17*
%TO.C,C32*%
X97990000Y-66800000D03*
X97990000Y-68350000D03*
%TD*%
D18*
%TO.C,R15*%
X96440000Y-68405000D03*
X96440000Y-66755000D03*
%TD*%
D19*
%TO.C,C31*%
X93175000Y-71100000D03*
X91625000Y-71100000D03*
%TD*%
M02*
