"Id";"Designator";"Footprint";"Quantity";"Designation";"Supplier and ref";
1;"SW6,SW3,SW4,SW2,SW7,SW6";"SW_TH_Tactile_Omron_B3F-10xx";6;"SW_Push";;;
2;"R14,R29,R28,R7,R25,R8,R3,R2,R22,R26,R12,R17,R15";"R_0603_1608Metric";13;"4.7K 0603";;;
3;"C26,C32";"C_0603_1608Metric";2;"1uF 0603";;;
4;"C29,C7,C27,C11,C24,C8,C28,C9,C5,C14,C25,C22,C3,C30,C19,C20,C23,C13,C10,C31";"C_0603_1608Metric";20;"0.1uF 0603";;;
5;"R20,R19,R1";"R_0603_1608Metric";3;"10K 0603";;;
6;"R68,R65,R64";"R_0603_1608Metric";3;"200R 0603";;;
7;"U5";"IC_DRV8601DRBT";1;"TPA2005D1DRBR";;;
8;"R27";"R_0603_1608Metric";1;"470R 0603";;;
9;"C17,C4";"C_0805_2012Metric";2;"4.7uF 0805";;;
10;"Q2";"SOT-23";1;"TP0610T";;;
11;"TP3,TP2,TP1,TP4";"TestPoint_Pad_4.0x4.0mm";4;"TestPoint_Flag";;;
12;"D2,D8,D3,D4,D1,D5,D7";"LED_0603_1608Metric";7;"LED";;;
13;"M4,M12,M7,M8,M6,M2,M10,M9,M1,M5,M13";"PinHeader_1x03_P2.54mm_Vertical";11;"Motor_Servo";;;
14;"SW5,SW1";"PinHeader_1x02_P2.54mm_Vertical";2;"SW_DIP_x01";;;
15;"R63,R21,R18,R5,R16,R13,R9";"R_0603_1608Metric";7;"1K 0603";;;
16;"R67,R66,R69";"R_0603_1608Metric";3;"20K 0603";;;
17;"R6,R10,R4,R11";"R_0603_1608Metric";4;"100K 0603";;;
18;"C15";"C_0805_2012Metric";1;"1uF 0805";;;
19;"IC6,IC8,IC7";"SHT40AD1BR3";3;"SHT40-AD1B-R3";;;
20;"R23,R24";"R_0603_1608Metric";2;"150K 0603";;;
21;"C2,C6,C16";"C_0805_2012Metric";3;"10uF 0805";;;
22;"J6";"USB_B_OST_USB-B1HSxx_Horizontal";1;"USB_B";;;
23;"S1";"SW_SPDT_PCM12";1;"EG1215AA";;;
24;"L1";"L_1008_2520Metric_Pad1.43x2.20mm_HandSolder";1;"L_Small";;;
25;"U1";"LQFP-100_14x14mm_P0.5mm";1;"STM32U585VITx";;;
26;"Y1";"Crystal_SMD_SeikoEpson_FA238-4Pin_3.2x2.5mm_HandSoldering";1;"Crystal_GND24";;;
27;"IC2";"MC3630";1;"MC3630";;;
28;"C1";"C_0603_1608Metric";1;"2.2uF 0603";;;
29;"J5";"PinHeader_1x04_P2.54mm_Vertical";1;"Conn_01x04_Pin";;;
30;"Q1";"SOT-23";1;"BSS123";;;
31;"LS1";"PinHeader_1x02_P2.54mm_Vertical";1;"Speaker";;;
32;"J3";"U.FL_Molex_MCRF_73412-0110_Vertical";1;"Conn_Coaxial";;;
33;"IC3";"SOT95P280X130-5N";1;"XC9140C501MR-G";;;
34;"J4";"PinHeader_1x07_P2.54mm_Vertical";1;"UART_SWD";;;
35;"Y3";"Crystal_SMD_SeikoEpson_MC146-4Pin_6.7x1.5mm";1;"Crystal_GND24";;;
36;"U3";"SOIC-8_5.23x5.23mm_P1.27mm";1;"W25Q128JVS";;;
37;"U7";"317990687";1;"317990687";;;
38;"IC4,IC5";"ICS43434";2;"ICS-43434";;;
39;"J1";"microSD_HC_Molex_47219-2001";1;"Micro_SD_Card";;;
40;"J2";"PinHeader_1x07_P2.54mm_Vertical";1;"Conn_01x07_Female";;;
